{'userId': <KerasTensor: shape=(None, 1) dtype=int32 (created by layer 'userId')>, 'gender': <KerasTensor: shape=(None, 1) dtype=string (created by layer 'gender')>, 'occupation': <KerasTensor: shape=(None, 1) dtype=string (created by layer 'occupation')>, 'location': <KerasTensor: shape=(None, 1) dtype=string (created by layer 'location')>, 'age': <KerasTensor: shape=(None, 1) dtype=string (created by layer 'age')>}
TwoTowerNeuralCF-DynamicFeatures
Start to fit TwoTowerNeuralCF-DynamicFeatures model on dataset ml-1m during 100 epochs
Epoch 1/100
3515/3515 - 82s - loss: 6.1989 - root_mean_squared_error: 2.4898 - mae: 2.1780 - val_loss: 1.9352 - val_root_mean_squared_error: 1.3911 - val_mae: 1.1871

Epoch 00001: val_root_mean_squared_error improved from inf to 1.39111, saving model to ./checkpoint/ml-1m/TwoTowerNeuralCF-DynamicFeatures/20210330-0040/
Epoch 2/100
3515/3515 - 80s - loss: 1.2232 - root_mean_squared_error: 1.1060 - mae: 0.9139 - val_loss: 0.9321 - val_root_mean_squared_error: 0.9654 - val_mae: 0.7795

Epoch 00002: val_root_mean_squared_error improved from 1.39111 to 0.96544, saving model to ./checkpoint/ml-1m/TwoTowerNeuralCF-DynamicFeatures/20210330-0040/
Epoch 3/100
3515/3515 - 77s - loss: 0.9363 - root_mean_squared_error: 0.9676 - mae: 0.7612 - val_loss: 0.8580 - val_root_mean_squared_error: 0.9263 - val_mae: 0.7281

Epoch 00003: val_root_mean_squared_error improved from 0.96544 to 0.92626, saving model to ./checkpoint/ml-1m/TwoTowerNeuralCF-DynamicFeatures/20210330-0040/
Epoch 4/100
3515/3515 - 79s - loss: 0.8952 - root_mean_squared_error: 0.9462 - mae: 0.7404 - val_loss: 0.8248 - val_root_mean_squared_error: 0.9082 - val_mae: 0.7149

Epoch 00004: val_root_mean_squared_error improved from 0.92626 to 0.90819, saving model to ./checkpoint/ml-1m/TwoTowerNeuralCF-DynamicFeatures/20210330-0040/
Epoch 5/100
3515/3515 - 79s - loss: 0.8710 - root_mean_squared_error: 0.9333 - mae: 0.7312 - val_loss: 0.8096 - val_root_mean_squared_error: 0.8998 - val_mae: 0.7077

Epoch 00005: val_root_mean_squared_error improved from 0.90819 to 0.89980, saving model to ./checkpoint/ml-1m/TwoTowerNeuralCF-DynamicFeatures/20210330-0040/
Epoch 6/100
3515/3515 - 82s - loss: 0.8509 - root_mean_squared_error: 0.9224 - mae: 0.7235 - val_loss: 0.7987 - val_root_mean_squared_error: 0.8937 - val_mae: 0.7020

Epoch 00006: val_root_mean_squared_error improved from 0.89980 to 0.89369, saving model to ./checkpoint/ml-1m/TwoTowerNeuralCF-DynamicFeatures/20210330-0040/
Epoch 7/100
3515/3515 - 81s - loss: 0.8374 - root_mean_squared_error: 0.9151 - mae: 0.7180 - val_loss: 0.7952 - val_root_mean_squared_error: 0.8917 - val_mae: 0.7010

Epoch 00007: val_root_mean_squared_error improved from 0.89369 to 0.89172, saving model to ./checkpoint/ml-1m/TwoTowerNeuralCF-DynamicFeatures/20210330-0040/
Epoch 8/100
3515/3515 - 81s - loss: 0.8291 - root_mean_squared_error: 0.9105 - mae: 0.7151 - val_loss: 0.7827 - val_root_mean_squared_error: 0.8847 - val_mae: 0.6964

Epoch 00008: val_root_mean_squared_error improved from 0.89172 to 0.88473, saving model to ./checkpoint/ml-1m/TwoTowerNeuralCF-DynamicFeatures/20210330-0040/
Epoch 9/100
3515/3515 - 81s - loss: 0.8222 - root_mean_squared_error: 0.9067 - mae: 0.7122 - val_loss: 0.7824 - val_root_mean_squared_error: 0.8845 - val_mae: 0.6962

Epoch 00009: val_root_mean_squared_error improved from 0.88473 to 0.88453, saving model to ./checkpoint/ml-1m/TwoTowerNeuralCF-DynamicFeatures/20210330-0040/
Epoch 10/100
3515/3515 - 80s - loss: 0.8158 - root_mean_squared_error: 0.9032 - mae: 0.7099 - val_loss: 0.7766 - val_root_mean_squared_error: 0.8813 - val_mae: 0.6939

Epoch 00010: val_root_mean_squared_error improved from 0.88453 to 0.88125, saving model to ./checkpoint/ml-1m/TwoTowerNeuralCF-DynamicFeatures/20210330-0040/
Epoch 11/100
3515/3515 - 82s - loss: 0.8103 - root_mean_squared_error: 0.9002 - mae: 0.7079 - val_loss: 0.7836 - val_root_mean_squared_error: 0.8852 - val_mae: 0.6966

Epoch 00011: val_root_mean_squared_error did not improve from 0.88125
Epoch 12/100
3515/3515 - 82s - loss: 0.8074 - root_mean_squared_error: 0.8986 - mae: 0.7062 - val_loss: 0.7755 - val_root_mean_squared_error: 0.8806 - val_mae: 0.6930

Epoch 00012: val_root_mean_squared_error improved from 0.88125 to 0.88062, saving model to ./checkpoint/ml-1m/TwoTowerNeuralCF-DynamicFeatures/20210330-0040/
Epoch 13/100
3515/3515 - 82s - loss: 0.8032 - root_mean_squared_error: 0.8962 - mae: 0.7047 - val_loss: 0.7754 - val_root_mean_squared_error: 0.8806 - val_mae: 0.6930

Epoch 00013: val_root_mean_squared_error improved from 0.88062 to 0.88058, saving model to ./checkpoint/ml-1m/TwoTowerNeuralCF-DynamicFeatures/20210330-0040/
Epoch 14/100
3515/3515 - 81s - loss: 0.8003 - root_mean_squared_error: 0.8946 - mae: 0.7036 - val_loss: 0.7769 - val_root_mean_squared_error: 0.8814 - val_mae: 0.6938

Epoch 00014: val_root_mean_squared_error did not improve from 0.88058
Epoch 15/100
3515/3515 - 82s - loss: 0.7960 - root_mean_squared_error: 0.8922 - mae: 0.7019 - val_loss: 0.7750 - val_root_mean_squared_error: 0.8803 - val_mae: 0.6932

Epoch 00015: val_root_mean_squared_error improved from 0.88058 to 0.88033, saving model to ./checkpoint/ml-1m/TwoTowerNeuralCF-DynamicFeatures/20210330-0040/
Epoch 16/100
3515/3515 - 81s - loss: 0.7932 - root_mean_squared_error: 0.8906 - mae: 0.7007 - val_loss: 0.7683 - val_root_mean_squared_error: 0.8765 - val_mae: 0.6907

Epoch 00016: val_root_mean_squared_error improved from 0.88033 to 0.87650, saving model to ./checkpoint/ml-1m/TwoTowerNeuralCF-DynamicFeatures/20210330-0040/
Epoch 17/100
3515/3515 - 81s - loss: 0.7904 - root_mean_squared_error: 0.8890 - mae: 0.6995 - val_loss: 0.7704 - val_root_mean_squared_error: 0.8777 - val_mae: 0.6913

Epoch 00017: val_root_mean_squared_error did not improve from 0.87650
Epoch 18/100
3515/3515 - 81s - loss: 0.7884 - root_mean_squared_error: 0.8879 - mae: 0.6987 - val_loss: 0.7628 - val_root_mean_squared_error: 0.8734 - val_mae: 0.6894

Epoch 00018: val_root_mean_squared_error improved from 0.87650 to 0.87340, saving model to ./checkpoint/ml-1m/TwoTowerNeuralCF-DynamicFeatures/20210330-0040/
Epoch 19/100
3515/3515 - 81s - loss: 0.7859 - root_mean_squared_error: 0.8865 - mae: 0.6976 - val_loss: 0.7866 - val_root_mean_squared_error: 0.8869 - val_mae: 0.6981

Epoch 00019: val_root_mean_squared_error did not improve from 0.87340
Epoch 20/100
3515/3515 - 81s - loss: 0.7832 - root_mean_squared_error: 0.8850 - mae: 0.6967 - val_loss: 0.7781 - val_root_mean_squared_error: 0.8821 - val_mae: 0.6946

Epoch 00020: val_root_mean_squared_error did not improve from 0.87340
Epoch 21/100
3515/3515 - 82s - loss: 0.7814 - root_mean_squared_error: 0.8840 - mae: 0.6957 - val_loss: 0.7773 - val_root_mean_squared_error: 0.8817 - val_mae: 0.6947

Epoch 00021: val_root_mean_squared_error did not improve from 0.87340
Epoch 22/100
3515/3515 - 82s - loss: 0.7811 - root_mean_squared_error: 0.8838 - mae: 0.6957 - val_loss: 0.7686 - val_root_mean_squared_error: 0.8767 - val_mae: 0.6908

Epoch 00022: val_root_mean_squared_error did not improve from 0.87340
Epoch 23/100
3515/3515 - 82s - loss: 0.7785 - root_mean_squared_error: 0.8823 - mae: 0.6944 - val_loss: 0.7620 - val_root_mean_squared_error: 0.8729 - val_mae: 0.6889

Epoch 00023: val_root_mean_squared_error improved from 0.87340 to 0.87294, saving model to ./checkpoint/ml-1m/TwoTowerNeuralCF-DynamicFeatures/20210330-0040/
Epoch 24/100
3515/3515 - 82s - loss: 0.7735 - root_mean_squared_error: 0.8795 - mae: 0.6927 - val_loss: 0.7581 - val_root_mean_squared_error: 0.8707 - val_mae: 0.6872

Epoch 00024: val_root_mean_squared_error improved from 0.87294 to 0.87070, saving model to ./checkpoint/ml-1m/TwoTowerNeuralCF-DynamicFeatures/20210330-0040/
Epoch 25/100
3515/3515 - 82s - loss: 0.7729 - root_mean_squared_error: 0.8791 - mae: 0.6925 - val_loss: 0.7688 - val_root_mean_squared_error: 0.8768 - val_mae: 0.6907

Epoch 00025: val_root_mean_squared_error did not improve from 0.87070
Epoch 26/100
3515/3515 - 80s - loss: 0.7713 - root_mean_squared_error: 0.8782 - mae: 0.6918 - val_loss: 0.7765 - val_root_mean_squared_error: 0.8812 - val_mae: 0.6937

Epoch 00026: val_root_mean_squared_error did not improve from 0.87070
Epoch 27/100
3515/3515 - 79s - loss: 0.7698 - root_mean_squared_error: 0.8774 - mae: 0.6911 - val_loss: 0.7569 - val_root_mean_squared_error: 0.8700 - val_mae: 0.6867

Epoch 00027: val_root_mean_squared_error improved from 0.87070 to 0.87001, saving model to ./checkpoint/ml-1m/TwoTowerNeuralCF-DynamicFeatures/20210330-0040/
Epoch 28/100
3515/3515 - 78s - loss: 0.7688 - root_mean_squared_error: 0.8768 - mae: 0.6906 - val_loss: 0.7630 - val_root_mean_squared_error: 0.8735 - val_mae: 0.6892

Epoch 00028: val_root_mean_squared_error did not improve from 0.87001
Epoch 29/100
3515/3515 - 80s - loss: 0.7681 - root_mean_squared_error: 0.8764 - mae: 0.6904 - val_loss: 0.7685 - val_root_mean_squared_error: 0.8766 - val_mae: 0.6911

Epoch 00029: val_root_mean_squared_error did not improve from 0.87001
Epoch 30/100
3515/3515 - 83s - loss: 0.7670 - root_mean_squared_error: 0.8758 - mae: 0.6896 - val_loss: 0.7570 - val_root_mean_squared_error: 0.8700 - val_mae: 0.6869

Epoch 00030: val_root_mean_squared_error did not improve from 0.87001
Epoch 31/100
3515/3515 - 82s - loss: 0.7650 - root_mean_squared_error: 0.8746 - mae: 0.6890 - val_loss: 0.7666 - val_root_mean_squared_error: 0.8756 - val_mae: 0.6899

Epoch 00031: val_root_mean_squared_error did not improve from 0.87001
Epoch 32/100
3515/3515 - 82s - loss: 0.7636 - root_mean_squared_error: 0.8738 - mae: 0.6884 - val_loss: 0.7588 - val_root_mean_squared_error: 0.8711 - val_mae: 0.6874

Epoch 00032: val_root_mean_squared_error did not improve from 0.87001
Epoch 33/100
3515/3515 - 82s - loss: 0.7618 - root_mean_squared_error: 0.8728 - mae: 0.6878 - val_loss: 0.7569 - val_root_mean_squared_error: 0.8700 - val_mae: 0.6868

Epoch 00033: val_root_mean_squared_error improved from 0.87001 to 0.87001, saving model to ./checkpoint/ml-1m/TwoTowerNeuralCF-DynamicFeatures/20210330-0040/
Epoch 34/100
3515/3515 - 82s - loss: 0.7610 - root_mean_squared_error: 0.8723 - mae: 0.6876 - val_loss: 0.7599 - val_root_mean_squared_error: 0.8717 - val_mae: 0.6877

Epoch 00034: val_root_mean_squared_error did not improve from 0.87001
Epoch 35/100
3515/3515 - 81s - loss: 0.7601 - root_mean_squared_error: 0.8718 - mae: 0.6871 - val_loss: 0.7591 - val_root_mean_squared_error: 0.8713 - val_mae: 0.6876

Epoch 00035: val_root_mean_squared_error did not improve from 0.87001
Epoch 36/100
3515/3515 - 82s - loss: 0.7603 - root_mean_squared_error: 0.8719 - mae: 0.6870 - val_loss: 0.7580 - val_root_mean_squared_error: 0.8706 - val_mae: 0.6868

Epoch 00036: val_root_mean_squared_error did not improve from 0.87001
Epoch 37/100
3515/3515 - 82s - loss: 0.7585 - root_mean_squared_error: 0.8709 - mae: 0.6863 - val_loss: 0.7580 - val_root_mean_squared_error: 0.8706 - val_mae: 0.6866

Epoch 00037: val_root_mean_squared_error did not improve from 0.87001
Epoch 38/100
3515/3515 - 82s - loss: 0.7582 - root_mean_squared_error: 0.8707 - mae: 0.6863 - val_loss: 0.7612 - val_root_mean_squared_error: 0.8725 - val_mae: 0.6878

Epoch 00038: val_root_mean_squared_error did not improve from 0.87001
Epoch 39/100
3515/3515 - 81s - loss: 0.7573 - root_mean_squared_error: 0.8702 - mae: 0.6860 - val_loss: 0.7647 - val_root_mean_squared_error: 0.8745 - val_mae: 0.6896

Epoch 00039: val_root_mean_squared_error did not improve from 0.87001
Epoch 40/100
3515/3515 - 80s - loss: 0.7553 - root_mean_squared_error: 0.8691 - mae: 0.6850 - val_loss: 0.7551 - val_root_mean_squared_error: 0.8690 - val_mae: 0.6863

Epoch 00040: val_root_mean_squared_error improved from 0.87001 to 0.86896, saving model to ./checkpoint/ml-1m/TwoTowerNeuralCF-DynamicFeatures/20210330-0040/
Epoch 41/100
3515/3515 - 79s - loss: 0.7559 - root_mean_squared_error: 0.8694 - mae: 0.6852 - val_loss: 0.7669 - val_root_mean_squared_error: 0.8757 - val_mae: 0.6903

Epoch 00041: val_root_mean_squared_error did not improve from 0.86896
Epoch 42/100
3515/3515 - 79s - loss: 0.7548 - root_mean_squared_error: 0.8688 - mae: 0.6847 - val_loss: 0.7553 - val_root_mean_squared_error: 0.8691 - val_mae: 0.6861

Epoch 00042: val_root_mean_squared_error did not improve from 0.86896
Epoch 43/100
3515/3515 - 79s - loss: 0.7538 - root_mean_squared_error: 0.8682 - mae: 0.6844 - val_loss: 0.7684 - val_root_mean_squared_error: 0.8766 - val_mae: 0.6911

Epoch 00043: val_root_mean_squared_error did not improve from 0.86896
Epoch 44/100
3515/3515 - 80s - loss: 0.7537 - root_mean_squared_error: 0.8682 - mae: 0.6843 - val_loss: 0.7550 - val_root_mean_squared_error: 0.8689 - val_mae: 0.6856

Epoch 00044: val_root_mean_squared_error improved from 0.86896 to 0.86890, saving model to ./checkpoint/ml-1m/TwoTowerNeuralCF-DynamicFeatures/20210330-0040/
Epoch 45/100
3515/3515 - 79s - loss: 0.7530 - root_mean_squared_error: 0.8678 - mae: 0.6838 - val_loss: 0.7564 - val_root_mean_squared_error: 0.8697 - val_mae: 0.6860

Epoch 00045: val_root_mean_squared_error did not improve from 0.86890
Epoch 46/100
3515/3515 - 80s - loss: 0.7518 - root_mean_squared_error: 0.8671 - mae: 0.6837 - val_loss: 0.7612 - val_root_mean_squared_error: 0.8724 - val_mae: 0.6877

Epoch 00046: val_root_mean_squared_error did not improve from 0.86890
Epoch 47/100
3515/3515 - 81s - loss: 0.7521 - root_mean_squared_error: 0.8672 - mae: 0.6837 - val_loss: 0.7567 - val_root_mean_squared_error: 0.8699 - val_mae: 0.6865

Epoch 00047: val_root_mean_squared_error did not improve from 0.86890
Epoch 48/100
3515/3515 - 82s - loss: 0.7508 - root_mean_squared_error: 0.8665 - mae: 0.6832 - val_loss: 0.7614 - val_root_mean_squared_error: 0.8726 - val_mae: 0.6881

Epoch 00048: val_root_mean_squared_error did not improve from 0.86890
Epoch 49/100
3515/3515 - 82s - loss: 0.7495 - root_mean_squared_error: 0.8657 - mae: 0.6823 - val_loss: 0.7553 - val_root_mean_squared_error: 0.8691 - val_mae: 0.6862

Epoch 00049: val_root_mean_squared_error did not improve from 0.86890
Epoch 50/100
3515/3515 - 82s - loss: 0.7495 - root_mean_squared_error: 0.8657 - mae: 0.6824 - val_loss: 0.7544 - val_root_mean_squared_error: 0.8685 - val_mae: 0.6858

Epoch 00050: val_root_mean_squared_error improved from 0.86890 to 0.86854, saving model to ./checkpoint/ml-1m/TwoTowerNeuralCF-DynamicFeatures/20210330-0040/
Epoch 51/100
3515/3515 - 82s - loss: 0.7476 - root_mean_squared_error: 0.8646 - mae: 0.6817 - val_loss: 0.7562 - val_root_mean_squared_error: 0.8696 - val_mae: 0.6860

Epoch 00051: val_root_mean_squared_error did not improve from 0.86854
Epoch 52/100
3515/3515 - 81s - loss: 0.7480 - root_mean_squared_error: 0.8649 - mae: 0.6818 - val_loss: 0.7568 - val_root_mean_squared_error: 0.8700 - val_mae: 0.6867

Epoch 00052: val_root_mean_squared_error did not improve from 0.86854
Epoch 53/100
3515/3515 - 82s - loss: 0.7473 - root_mean_squared_error: 0.8645 - mae: 0.6814 - val_loss: 0.7539 - val_root_mean_squared_error: 0.8683 - val_mae: 0.6862

Epoch 00053: val_root_mean_squared_error improved from 0.86854 to 0.86830, saving model to ./checkpoint/ml-1m/TwoTowerNeuralCF-DynamicFeatures/20210330-0040/
Epoch 54/100
3515/3515 - 82s - loss: 0.7479 - root_mean_squared_error: 0.8648 - mae: 0.6818 - val_loss: 0.7548 - val_root_mean_squared_error: 0.8688 - val_mae: 0.6860

Epoch 00054: val_root_mean_squared_error did not improve from 0.86830
Epoch 55/100
3515/3515 - 82s - loss: 0.7455 - root_mean_squared_error: 0.8634 - mae: 0.6808 - val_loss: 0.7603 - val_root_mean_squared_error: 0.8720 - val_mae: 0.6881

Epoch 00055: val_root_mean_squared_error did not improve from 0.86830
Epoch 56/100
3515/3515 - 82s - loss: 0.7461 - root_mean_squared_error: 0.8638 - mae: 0.6810 - val_loss: 0.7622 - val_root_mean_squared_error: 0.8731 - val_mae: 0.6886

Epoch 00056: val_root_mean_squared_error did not improve from 0.86830
Epoch 57/100
3515/3515 - 82s - loss: 0.7446 - root_mean_squared_error: 0.8629 - mae: 0.6805 - val_loss: 0.7536 - val_root_mean_squared_error: 0.8681 - val_mae: 0.6856

Epoch 00057: val_root_mean_squared_error improved from 0.86830 to 0.86812, saving model to ./checkpoint/ml-1m/TwoTowerNeuralCF-DynamicFeatures/20210330-0040/
Epoch 58/100
3515/3515 - 82s - loss: 0.7447 - root_mean_squared_error: 0.8630 - mae: 0.6803 - val_loss: 0.7579 - val_root_mean_squared_error: 0.8706 - val_mae: 0.6868

Epoch 00058: val_root_mean_squared_error did not improve from 0.86812
Epoch 59/100
3515/3515 - 82s - loss: 0.7446 - root_mean_squared_error: 0.8629 - mae: 0.6802 - val_loss: 0.7582 - val_root_mean_squared_error: 0.8707 - val_mae: 0.6868

Epoch 00059: val_root_mean_squared_error did not improve from 0.86812
Epoch 60/100
3515/3515 - 82s - loss: 0.7432 - root_mean_squared_error: 0.8621 - mae: 0.6797 - val_loss: 0.7618 - val_root_mean_squared_error: 0.8728 - val_mae: 0.6883

Epoch 00060: val_root_mean_squared_error did not improve from 0.86812
Epoch 61/100
3515/3515 - 82s - loss: 0.7434 - root_mean_squared_error: 0.8622 - mae: 0.6797 - val_loss: 0.7633 - val_root_mean_squared_error: 0.8737 - val_mae: 0.6890

Epoch 00061: val_root_mean_squared_error did not improve from 0.86812
Epoch 62/100
3515/3515 - 82s - loss: 0.7418 - root_mean_squared_error: 0.8613 - mae: 0.6792 - val_loss: 0.7573 - val_root_mean_squared_error: 0.8702 - val_mae: 0.6867

Epoch 00062: val_root_mean_squared_error did not improve from 0.86812
Epoch 63/100
3515/3515 - 81s - loss: 0.7421 - root_mean_squared_error: 0.8615 - mae: 0.6792 - val_loss: 0.7546 - val_root_mean_squared_error: 0.8687 - val_mae: 0.6859

Epoch 00063: val_root_mean_squared_error did not improve from 0.86812
Epoch 64/100
3515/3515 - 82s - loss: 0.7419 - root_mean_squared_error: 0.8614 - mae: 0.6793 - val_loss: 0.7604 - val_root_mean_squared_error: 0.8720 - val_mae: 0.6879

Epoch 00064: val_root_mean_squared_error did not improve from 0.86812
Epoch 65/100
3515/3515 - 82s - loss: 0.7415 - root_mean_squared_error: 0.8611 - mae: 0.6792 - val_loss: 0.7577 - val_root_mean_squared_error: 0.8704 - val_mae: 0.6868

Epoch 00065: val_root_mean_squared_error did not improve from 0.86812
Epoch 66/100
3515/3515 - 82s - loss: 0.7422 - root_mean_squared_error: 0.8615 - mae: 0.6795 - val_loss: 0.7572 - val_root_mean_squared_error: 0.8702 - val_mae: 0.6864

Epoch 00066: val_root_mean_squared_error did not improve from 0.86812
Epoch 67/100
3515/3515 - 82s - loss: 0.7400 - root_mean_squared_error: 0.8602 - mae: 0.6783 - val_loss: 0.7558 - val_root_mean_squared_error: 0.8693 - val_mae: 0.6863

Epoch 00067: val_root_mean_squared_error did not improve from 0.86812
Complete fiting TwoTowerNeuralCF-DynamicFeatures model on dataset ml-1m, spend a total of 5609.648416757584 seconds
      1/Unknown - 0s 348ms/step - loss: 0.8295 - root_mean_squared_error: 0.9108 - mae: 0.7093     10/Unknown - 0s 6ms/step - loss: 0.7662 - root_mean_squared_error: 0.8753 - mae: 0.6851       18/Unknown - 0s 6ms/step - loss: 0.7716 - root_mean_squared_error: 0.8784 - mae: 0.6881     26/Unknown - 1s 6ms/step - loss: 0.7607 - root_mean_squared_error: 0.8722 - mae: 0.6854     34/Unknown - 1s 6ms/step - loss: 0.7591 - root_mean_squared_error: 0.8712 - mae: 0.6857     41/Unknown - 1s 6ms/step - loss: 0.7559 - root_mean_squared_error: 0.8694 - mae: 0.6856     46/Unknown - 1s 7ms/step - loss: 0.7591 - root_mean_squared_error: 0.8712 - mae: 0.6868     51/Unknown - 1s 7ms/step - loss: 0.7626 - root_mean_squared_error: 0.8733 - mae: 0.6872     56/Unknown - 1s 8ms/step - loss: 0.7647 - root_mean_squared_error: 0.8745 - mae: 0.6896     62/Unknown - 1s 8ms/step - loss: 0.7657 - root_mean_squared_error: 0.8750 - mae: 0.6892     68/Unknown - 1s 8ms/step - loss: 0.7682 - root_mean_squared_error: 0.8765 - mae: 0.6902     75/Unknown - 1s 8ms/step - loss: 0.7677 - root_mean_squared_error: 0.8762 - mae: 0.6888     82/Unknown - 1s 8ms/step - loss: 0.7721 - root_mean_squared_error: 0.8787 - mae: 0.6900     89/Unknown - 1s 8ms/step - loss: 0.7672 - root_mean_squared_error: 0.8759 - mae: 0.6877     95/Unknown - 1s 8ms/step - loss: 0.7690 - root_mean_squared_error: 0.8769 - mae: 0.6892    102/Unknown - 1s 8ms/step - loss: 0.7680 - root_mean_squared_error: 0.8763 - mae: 0.6898    109/Unknown - 1s 8ms/step - loss: 0.7652 - root_mean_squared_error: 0.8748 - mae: 0.6888    116/Unknown - 1s 8ms/step - loss: 0.7613 - root_mean_squared_error: 0.8725 - mae: 0.6877    122/Unknown - 1s 8ms/step - loss: 0.7606 - root_mean_squared_error: 0.8721 - mae: 0.6874    128/Unknown - 1s 8ms/step - loss: 0.7606 - root_mean_squared_error: 0.8721 - mae: 0.6878    134/Unknown - 1s 8ms/step - loss: 0.7599 - root_mean_squared_error: 0.8717 - mae: 0.6870    140/Unknown - 1s 8ms/step - loss: 0.7593 - root_mean_squared_error: 0.8714 - mae: 0.6870    146/Unknown - 2s 8ms/step - loss: 0.7583 - root_mean_squared_error: 0.8708 - mae: 0.6871    152/Unknown - 2s 8ms/step - loss: 0.7579 - root_mean_squared_error: 0.8706 - mae: 0.6871    158/Unknown - 2s 8ms/step - loss: 0.7601 - root_mean_squared_error: 0.8718 - mae: 0.6883    164/Unknown - 2s 8ms/step - loss: 0.7587 - root_mean_squared_error: 0.8710 - mae: 0.6874    170/Unknown - 2s 8ms/step - loss: 0.7577 - root_mean_squared_error: 0.8704 - mae: 0.6870    176/Unknown - 2s 8ms/step - loss: 0.7593 - root_mean_squared_error: 0.8714 - mae: 0.6875    182/Unknown - 2s 8ms/step - loss: 0.7593 - root_mean_squared_error: 0.8714 - mae: 0.6878    188/Unknown - 2s 8ms/step - loss: 0.7602 - root_mean_squared_error: 0.8719 - mae: 0.6882    194/Unknown - 2s 8ms/step - loss: 0.7610 - root_mean_squared_error: 0.8723 - mae: 0.6886    200/Unknown - 2s 8ms/step - loss: 0.7608 - root_mean_squared_error: 0.8722 - mae: 0.6886    206/Unknown - 2s 8ms/step - loss: 0.7608 - root_mean_squared_error: 0.8722 - mae: 0.6886    212/Unknown - 2s 8ms/step - loss: 0.7608 - root_mean_squared_error: 0.8723 - mae: 0.6887    218/Unknown - 2s 8ms/step - loss: 0.7606 - root_mean_squared_error: 0.8721 - mae: 0.6886    224/Unknown - 2s 8ms/step - loss: 0.7619 - root_mean_squared_error: 0.8729 - mae: 0.6892    230/Unknown - 2s 8ms/step - loss: 0.7618 - root_mean_squared_error: 0.8728 - mae: 0.6892    236/Unknown - 2s 8ms/step - loss: 0.7626 - root_mean_squared_error: 0.8733 - mae: 0.6900    242/Unknown - 2s 8ms/step - loss: 0.7628 - root_mean_squared_error: 0.8734 - mae: 0.6903    248/Unknown - 2s 9ms/step - loss: 0.7612 - root_mean_squared_error: 0.8725 - mae: 0.6895    254/Unknown - 3s 9ms/step - loss: 0.7596 - root_mean_squared_error: 0.8716 - mae: 0.6888    260/Unknown - 3s 9ms/step - loss: 0.7588 - root_mean_squared_error: 0.8711 - mae: 0.6885    266/Unknown - 3s 9ms/step - loss: 0.7584 - root_mean_squared_error: 0.8709 - mae: 0.6885    272/Unknown - 3s 9ms/step - loss: 0.7584 - root_mean_squared_error: 0.8708 - mae: 0.6885    276/Unknown - 3s 9ms/step - loss: 0.7583 - root_mean_squared_error: 0.8708 - mae: 0.6884    281/Unknown - 3s 9ms/step - loss: 0.7581 - root_mean_squared_error: 0.8707 - mae: 0.6883    286/Unknown - 3s 9ms/step - loss: 0.7582 - root_mean_squared_error: 0.8707 - mae: 0.6884    291/Unknown - 3s 9ms/step - loss: 0.7580 - root_mean_squared_error: 0.8706 - mae: 0.6883    296/Unknown - 3s 9ms/step - loss: 0.7580 - root_mean_squared_error: 0.8706 - mae: 0.6883    302/Unknown - 3s 9ms/step - loss: 0.7570 - root_mean_squared_error: 0.8700 - mae: 0.6876    308/Unknown - 3s 9ms/step - loss: 0.7576 - root_mean_squared_error: 0.8704 - mae: 0.6878    314/Unknown - 3s 9ms/step - loss: 0.7573 - root_mean_squared_error: 0.8702 - mae: 0.6875    320/Unknown - 3s 9ms/step - loss: 0.7569 - root_mean_squared_error: 0.8700 - mae: 0.6873    326/Unknown - 3s 9ms/step - loss: 0.7576 - root_mean_squared_error: 0.8704 - mae: 0.6874    332/Unknown - 3s 9ms/step - loss: 0.7571 - root_mean_squared_error: 0.8701 - mae: 0.6870    338/Unknown - 3s 9ms/step - loss: 0.7571 - root_mean_squared_error: 0.8701 - mae: 0.6868    344/Unknown - 3s 9ms/step - loss: 0.7572 - root_mean_squared_error: 0.8702 - mae: 0.6870    350/Unknown - 3s 9ms/step - loss: 0.7568 - root_mean_squared_error: 0.8699 - mae: 0.6868    358/Unknown - 4s 9ms/step - loss: 0.7556 - root_mean_squared_error: 0.8692 - mae: 0.6862    374/Unknown - 4s 9ms/step - loss: 0.7559 - root_mean_squared_error: 0.8694 - mae: 0.6863    391/Unknown - 4s 8ms/step - loss: 0.7557 - root_mean_squared_error: 0.8693 - mae: 0.6862393/393 [==============================] - 4s 8ms/step - loss: 0.7558 - root_mean_squared_error: 0.8693 - mae: 0.6863


Test Loss 0.7557586431503296, Test rmse 0.8693438172340393, Test mae 0.6862651109695435
Prediction Rating Score: 3.3  | Actual rating label:  4.0
Prediction Rating Score: 3.7  | Actual rating label:  5.0
Prediction Rating Score: 4.1  | Actual rating label:  5.0
Prediction Rating Score: 4.0  | Actual rating label:  4.0
Prediction Rating Score: 4.1  | Actual rating label:  2.0
Prediction Rating Score: 4.2  | Actual rating label:  4.0
Prediction Rating Score: 2.6  | Actual rating label:  5.0
Prediction Rating Score: 4.2  | Actual rating label:  4.0
Prediction Rating Score: 4.1  | Actual rating label:  2.0
Prediction Rating Score: 3.8  | Actual rating label:  3.0
