movieId,movieGenre1,movieGenre2,movieGenre3
0,Animation,Children's,Comedy
1,Adventure,Children's,Fantasy
2,Comedy,Romance,
3,Comedy,Drama,
4,Comedy,,
5,Action,Crime,Thriller
6,Comedy,Romance,
7,Adventure,Children's,
8,Action,,
9,Action,Adventure,Thriller
10,Comedy,Drama,Romance
11,Comedy,Horror,
12,Animation,Children's,
13,Drama,,
14,Action,Adventure,Romance
15,Drama,Thriller,
16,Drama,Romance,
17,Thriller,,
18,Comedy,,
19,Action,,
20,Action,Comedy,Drama
21,Crime,Drama,Thriller
22,Thriller,,
23,Drama,Sci-Fi,
24,Drama,Romance,
25,Drama,,
26,Drama,,
27,Romance,,
28,Adventure,Sci-Fi,
29,Drama,,
30,Drama,,
31,Drama,Sci-Fi,
32,Adventure,Romance,
33,Children's,Comedy,Drama
34,Drama,Romance,
35,Drama,,
36,Documentary,,
37,Comedy,,
38,Comedy,Romance,
39,Drama,,
40,Drama,War,
41,Action,Crime,Drama
42,Drama,,
43,Action,Adventure,
44,Comedy,Drama,
45,Drama,Romance,
46,Crime,Thriller,
47,Animation,Children's,Musical
48,Drama,Romance,
49,Crime,Thriller,
51,Comedy,,
52,Drama,,
53,Children's,Comedy,
54,Drama,,
55,Adventure,Children's,Fantasy
56,Drama,,
57,Drama,Romance,
58,Drama,Mystery,
59,Adventure,Children's,Fantasy
60,Drama,Thriller,
61,Drama,,
62,Comedy,,
63,Comedy,Romance,
64,Comedy,,
65,Sci-Fi,Thriller,
66,Drama,,
67,Comedy,Romance,
68,Comedy,,
69,Action,Comedy,Crime
70,Action,,
71,Comedy,Drama,
72,Drama,Musical,
73,Drama,Romance,
74,Comedy,Drama,
75,Sci-Fi,Thriller,
76,Documentary,,
77,Drama,,
78,Drama,Thriller,
79,Drama,,
80,Crime,Drama,Romance
81,Drama,,
82,Drama,,
83,Comedy,Drama,
84,Drama,Romance,
85,Adventure,Drama,
86,Children's,Comedy,
87,Comedy,,
88,Action,Thriller,
89,Drama,,
90,Drama,Thriller,
91,Comedy,Romance,
92,Drama,,
93,Action,Thriller,
94,Comedy,,
95,Drama,,
96,Action,Thriller,
97,Documentary,,
98,Drama,Thriller,
99,Comedy,,
100,Comedy,,
101,Thriller,,
102,Comedy,,
103,Drama,Romance,
104,Comedy,Drama,
105,Adventure,Children's,Comedy
106,Documentary,,
108,Action,Drama,War
109,Drama,Thriller,
110,Action,Adventure,Crime
111,Drama,Mystery,
112,Drama,,
114,Documentary,,
115,Crime,,
116,Comedy,Romance,
117,Comedy,,
118,Drama,,
119,Drama,,
120,Comedy,Romance,
121,Drama,Mystery,Romance
122,Drama,,
123,Comedy,,
124,Adventure,Children's,Fantasy
125,Drama,,
126,Documentary,,
127,Comedy,Romance,
128,Drama,,
129,Drama,Romance,
130,Thriller,,
131,Comedy,Drama,
132,Documentary,,
133,Comedy,,
134,Documentary,,
135,Documentary,,
136,Drama,,
137,Action,Drama,
138,Drama,Romance,
139,Comedy,,
140,Drama,,
142,Comedy,,
143,Action,,
144,Adventure,Children's,
145,Drama,,
146,Drama,,
147,Crime,Drama,Thriller
148,Drama,,
149,Drama,Romance,War
150,Horror,,
151,Action,Adventure,Comedy
152,Drama,,
153,Drama,War,
154,Comedy,,
155,Comedy,War,
156,Adventure,Children's,
157,Drama,,
158,Action,Adventure,Mystery
159,Drama,Thriller,War
160,Documentary,,
161,Action,Romance,Thriller
162,Crime,Film-Noir,Mystery
163,Action,Thriller,
164,Comedy,Drama,
165,Drama,,
166,Action,Adventure,Drama
167,Adventure,Children's,Drama
168,Action,Crime,Thriller
169,Comedy,,
170,Action,Sci-Fi,Thriller
171,Action,Adventure,Sci-Fi
172,Comedy,,
173,Drama,,
174,Comedy,,
175,Horror,,
176,Comedy,,
177,Drama,Romance,
178,Comedy,,
179,Action,Children's,
180,Drama,Romance,
181,Thriller,,
182,Drama,,
183,Sci-Fi,Thriller,
184,Comedy,,
185,Comedy,,
186,Horror,,
187,Comedy,,
188,Thriller,,
189,Drama,,
190,Documentary,,
191,Drama,,
192,Drama,,
193,Comedy,Drama,Romance
194,Horror,Sci-Fi,
195,Drama,,
196,Action,Crime,Sci-Fi
197,Drama,Musical,
198,Thriller,,
199,Drama,,
200,Drama,Romance,
201,Comedy,,
202,Action,,
203,Comedy,Drama,
204,Documentary,,
205,Drama,Romance,
206,Action,Adventure,
207,Drama,,
208,Western,,
209,Drama,,
210,Comedy,,
211,Drama,,
212,Drama,,
213,Drama,Romance,
214,Comedy,,
215,Drama,Thriller,
216,Comedy,Drama,
217,Drama,,
218,Horror,,
219,Drama,Romance,
220,Comedy,,
221,Comedy,Drama,Romance
222,Drama,Thriller,
223,Thriller,,
224,Action,,
225,Comedy,,
226,Drama,Thriller,
227,Drama,Thriller,
228,Comedy,,
229,Comedy,Drama,
230,Drama,,
231,Comedy,,
232,Comedy,Drama,
233,Comedy,Romance,
234,Comedy,Romance,
235,Adventure,Children's,
236,Animation,Children's,Comedy
237,Thriller,,
238,Children's,Drama,
239,Drama,Musical,
240,Comedy,,
241,Animation,Children's,
242,Crime,Drama,
243,Documentary,,
244,Drama,Fantasy,Romance
245,Comedy,,
246,Drama,Romance,
247,Children's,Comedy,
248,Action,,
249,Comedy,Romance,
250,Drama,Horror,
251,Drama,,
252,Comedy,,
253,Comedy,Sci-Fi,
254,Mystery,Thriller,
255,Adventure,Children's,Comedy
256,Crime,Drama,Thriller
257,Action,Adventure,Fantasy
258,Drama,,
259,Children's,Drama,
260,Drama,,
261,Drama,,
262,Drama,Romance,
263,Drama,Romance,War
264,Comedy,,
265,Drama,,
266,Drama,,
267,Drama,Romance,
268,Drama,,
269,Drama,,
270,Drama,Horror,
271,Comedy,,
272,Comedy,,
273,Comedy,Romance,
274,Drama,,
275,Comedy,,
276,Drama,,
277,Drama,Thriller,
278,Drama,,
279,Drama,,
280,Crime,Drama,
283,Action,Sci-Fi,Thriller
284,Comedy,Romance,
285,Action,Thriller,
286,Comedy,Romance,
287,Crime,Drama,
288,Thriller,,
289,Action,Drama,Thriller
290,Crime,Drama,Romance
291,Comedy,Romance,
292,Comedy,Romance,
293,Crime,Drama,
294,Drama,,
295,Comedy,,
296,Drama,,
297,Drama,,
298,Drama,Romance,
299,Drama,Romance,
300,Action,Adventure,Western
301,Comedy,Drama,
302,Comedy,,
303,Drama,,
304,Drama,,
305,Drama,,
306,Drama,,
307,Comedy,,
308,Horror,Thriller,
309,Comedy,,
310,Animation,Children's,
311,Drama,,
312,Action,,
313,Action,Adventure,Sci-Fi
314,Children's,Comedy,Fantasy
315,Drama,,
316,Thriller,,
317,Film-Noir,Thriller,
318,Drama,,
319,Comedy,Drama,
320,Comedy,,
321,Comedy,,
322,Drama,,
323,Action,Comedy,Musical
324,Horror,,
325,Action,Adventure,Sci-Fi
326,Comedy,Horror,
327,Drama,,
328,Horror,Sci-Fi,
329,Comedy,,
330,Drama,,
331,Mystery,Thriller,
332,Drama,War,
333,Drama,,
334,Sci-Fi,Thriller,
335,Comedy,Romance,
336,Adventure,Drama,
337,Drama,,
338,Comedy,Romance,
339,Children's,,
340,Comedy,,
341,Comedy,Drama,
342,Drama,Musical,
343,Drama,,
344,Comedy,,
345,Action,Adventure,Thriller
346,Drama,Mystery,Thriller
347,Comedy,Drama,Romance
348,Comedy,,
349,Action,Romance,Thriller
350,Drama,,
351,Children's,Comedy,
352,Comedy,Romance,War
353,Comedy,Romance,
354,Drama,,
355,Comedy,Drama,Romance
356,Action,Comedy,
357,Drama,Romance,
358,Adventure,Children's,Romance
359,Documentary,,
360,Animation,Children's,Musical
361,Drama,,
362,Horror,,
363,Comedy,Crime,Fantasy
364,Action,Comedy,Western
365,Drama,,
366,Comedy,,
367,Comedy,Drama,
368,Comedy,Drama,
369,Thriller,,
370,Children's,Comedy,
371,Drama,,
372,Action,Thriller,
373,Action,Romance,Thriller
374,Comedy,Romance,
375,Action,Sci-Fi,
376,Action,Adventure,Comedy
377,Drama,,
378,Drama,Horror,
379,Western,,
380,Action,,
381,Drama,,
382,Drama,,
383,Action,Comedy,
384,Drama,,
385,Drama,Romance,War
386,Action,Comedy,Drama
387,Crime,Drama,
388,Adventure,Children's,
389,Action,,
390,Action,,
392,Drama,,
393,Horror,,
394,Documentary,,
397,Action,Thriller,
398,Comedy,,
400,Documentary,,
401,Action,Sci-Fi,
402,Drama,,
403,Horror,Thriller,
404,Drama,,
405,Drama,,
406,Comedy,,
407,Comedy,,
408,Drama,,
409,Comedy,,
410,Comedy,,
411,Comedy,Thriller,
412,Western,,
413,Comedy,Romance,
414,Drama,,
415,Comedy,,
416,Action,Comedy,
417,Adventure,Children's,
418,Thriller,,
419,Action,Thriller,
420,Drama,,
421,Drama,Romance,
422,Horror,Sci-Fi,Thriller
423,Mystery,Romance,Thriller
424,Drama,,
425,Comedy,,
426,Drama,,
427,Crime,Drama,
428,Comedy,Western,
429,Comedy,,
430,Action,Adventure,Crime
431,Comedy,Sci-Fi,
432,Drama,Thriller,
433,Comedy,,
434,Action,Comedy,
435,Drama,,
436,Comedy,Romance,
437,Comedy,,
438,Action,Sci-Fi,
439,Documentary,,
440,Comedy,Romance,
441,Comedy,,
442,Drama,Romance,
443,Comedy,Romance,
444,Drama,,
445,Comedy,,
446,Comedy,Drama,
447,Drama,Mystery,Romance
448,Drama,,
449,Comedy,,
450,Drama,Thriller,
451,Adventure,Children's,Drama
452,Drama,,
453,Action,Thriller,
454,Drama,Western,
455,Action,,
456,Comedy,,
457,Drama,Romance,
458,Action,Adventure,
459,Crime,Drama,Thriller
460,Action,Adventure,Crime
461,Action,Drama,War
462,Action,Comedy,War
463,Comedy,,
464,Comedy,Romance,
465,Drama,Romance,
466,Comedy,,
467,Comedy,Romance,
468,Comedy,Drama,
469,Comedy,War,
470,Action,Thriller,
471,Drama,,
472,Comedy,Drama,
473,Drama,,
474,Comedy,,
475,Action,,
476,Action,Adventure,Sci-Fi
477,Drama,Thriller,
478,Thriller,,
479,Drama,,
480,Adventure,Children's,
481,Action,Comedy,
482,Comedy,,
483,Comedy,Western,
484,Drama,,
485,Comedy,,
486,Thriller,,
487,Drama,,
488,Comedy,Mystery,
489,Action,Crime,Drama
490,Action,Thriller,
491,Drama,,
492,Comedy,Drama,Romance
493,Comedy,Romance,
494,Drama,Romance,
495,Comedy,Romance,
496,Comedy,,
497,Drama,,
498,Action,Children's,
499,Drama,,
500,Action,Sci-Fi,
501,Comedy,,
502,Drama,,
503,Action,Drama,
504,Drama,,
505,Drama,Romance,
506,Drama,,
507,Action,Drama,
508,Horror,Sci-Fi,
509,Comedy,Mystery,Romance
510,Comedy,,
511,Drama,,
512,Comedy,Drama,War
513,Action,Drama,Mystery
514,Comedy,,
515,Sci-Fi,Thriller,
516,Comedy,,
517,Crime,Thriller,
518,Action,Drama,
519,Drama,,
520,Drama,,
521,Drama,,
522,Drama,,
523,Drama,War,
524,Drama,,
525,Drama,,
526,Drama,,
527,Children's,Drama,
528,Comedy,Crime,Horror
529,Action,,
530,Drama,Romance,
531,Drama,,
532,Drama,,
533,Comedy,Drama,
534,Drama,,
535,Comedy,Romance,
536,Thriller,,
537,Film-Noir,Sci-Fi,
538,Comedy,,
539,Comedy,Romance,Thriller
540,Action,,
541,Drama,,
542,Action,Adventure,Children's
543,Action,Adventure,Thriller
544,Action,,
545,Documentary,,
546,Comedy,Romance,
547,Children's,Comedy,Musical
548,Action,Adventure,Comedy
549,Western,,
550,Thriller,,
551,Action,Crime,Romance
552,Documentary,,
553,Drama,,
554,Action,Adventure,Animation
555,Comedy,,
556,Drama,,
557,Thriller,,
558,Comedy,Drama,
559,Drama,,
560,Comedy,,
561,Horror,,
562,Comedy,Romance,
563,Drama,,
564,Comedy,Drama,
565,Children's,Comedy,
566,Comedy,Drama,
567,Drama,,
568,Drama,,
569,Drama,,
570,Comedy,Drama,
571,Children's,Comedy,
572,Comedy,,
573,Adventure,Children's,
574,Drama,Mystery,
575,Thriller,,
576,Drama,,
577,Documentary,,
578,Comedy,,
579,Comedy,Drama,
580,Drama,,
581,Comedy,,
582,Children's,Comedy,
583,Comedy,Romance,Thriller
584,Animation,Children's,Comedy
585,Action,Sci-Fi,Thriller
586,Adventure,Drama,Western
587,Action,Drama,Thriller
588,Action,Adventure,Crime
589,Drama,Thriller,
590,Animation,Children's,Musical
591,Animation,Children's,Musical
592,Animation,Children's,
593,Comedy,Romance,
594,Comedy,,
595,Western,,
596,Thriller,,
597,Drama,,
598,Documentary,,
599,Comedy,,
601,Drama,Romance,
602,Horror,,
603,Drama,,
604,Crime,Drama,Thriller
605,Adventure,Children's,
606,Action,Adventure,Animation
607,Action,Horror,Sci-Fi
608,Comedy,,
609,Drama,Romance,
610,Drama,Thriller,
611,Drama,,
612,Animation,Children's,
613,Drama,,
614,Comedy,Romance,
615,Comedy,,
617,Drama,,
618,Romance,,
619,Action,Drama,Thriller
621,Comedy,,
622,Drama,Thriller,
623,Drama,Thriller,
625,Drama,Romance,
626,Animation,Children's,Musical
627,War,,
628,Comedy,,
629,Comedy,,
630,Comedy,Drama,
632,Comedy,,
633,Romance,,
634,Comedy,,
635,Drama,Thriller,
636,Comedy,,
637,Drama,,
638,Comedy,,
639,Comedy,,
640,Drama,,
641,Drama,War,
642,Action,Adventure,Mystery
643,Comedy,Drama,
644,Drama,,
645,Comedy,,
646,Mystery,,
647,Action,Adventure,Fantasy
649,Comedy,,
650,Comedy,,
651,Comedy,Drama,
652,Drama,,
653,Crime,Thriller,
654,Drama,,
655,Animation,Children's,Musical
656,Thriller,,
657,Comedy,,
658,Comedy,,
659,War,,
660,Drama,,
661,Action,,
662,Drama,,
663,Drama,,
664,Drama,,
665,Comedy,Sci-Fi,
666,Drama,,
667,Adventure,Animation,Children's
668,Adventure,Sci-Fi,
671,Drama,Thriller,
672,Drama,,
673,Sci-Fi,,
674,Crime,,
675,Documentary,Drama,
677,Drama,,
678,Drama,,
679,Drama,Romance,
680,Action,Adventure,Comedy
681,Romance,,
682,Comedy,Romance,
683,Action,Sci-Fi,Thriller
685,Action,,
686,Thriller,,
687,Drama,Romance,
688,Drama,,
690,Comedy,,
691,Drama,,
692,Drama,,
693,Drama,,
694,Action,Adventure,
695,Comedy,,
696,Drama,,
697,Crime,Film-Noir,Thriller
698,Comedy,Romance,
699,Animation,Children's,
700,Comedy,,
701,Adventure,Children's,
702,Drama,,
704,Western,,
705,Drama,,
706,Crime,,
707,Comedy,,
708,Comedy,Sci-Fi,
709,Comedy,,
710,Animation,,
712,Documentary,,
714,Drama,Horror,
715,Comedy,,
716,Drama,,
718,Comedy,,
719,Drama,,
720,Drama,,
721,Mystery,Thriller,
722,Crime,,
723,Action,Adventure,Thriller
724,Comedy,,
725,Comedy,Horror,
726,Action,Adventure,Romance
727,Action,Sci-Fi,
730,Animation,Sci-Fi,
731,Horror,Thriller,
732,Comedy,,
733,Drama,,
734,Animation,Comedy,Thriller
735,Film-Noir,,
736,Comedy,,
737,Action,Sci-Fi,Thriller
738,Drama,,
739,Sci-Fi,War,
740,Comedy,,
742,Comedy,Drama,
743,Adventure,Children's,
744,Children's,Drama,
745,Documentary,,
746,Drama,,
747,Drama,,
748,Documentary,,
749,War,,
750,Adventure,,
751,Comedy,Crime,
752,Drama,,
753,Drama,Romance,
754,Comedy,Drama,
755,Drama,,
756,Drama,,
758,Documentary,,
760,Comedy,Drama,
763,Drama,,
764,Horror,,
765,Comedy,Drama,
767,Drama,,
768,Drama,Romance,
769,Action,Sci-Fi,War
770,Drama,,
771,Thriller,,
772,Animation,Children's,Musical
773,Comedy,,
774,Comedy,,
775,Action,Thriller,
776,Documentary,,
777,Comedy,Fantasy,Romance
778,Drama,,
779,Drama,,
780,Documentary,,
781,Fantasy,,
782,Drama,,
785,Drama,,
787,Action,Adventure,Thriller
788,Comedy,Horror,
789,Drama,Mystery,
790,Children's,Comedy,
791,Drama,Romance,
792,Romance,,
793,Comedy,Romance,
794,Drama,,
795,Drama,,
796,Comedy,Romance,
797,Adventure,Children's,
798,Action,Adventure,
799,Children's,Comedy,Fantasy
800,Comedy,,
802,Comedy,,
803,Drama,,
804,Action,Mystery,Thriller
806,Comedy,,
808,Drama,,
809,Romance,,
811,Drama,,
812,Drama,,
814,Drama,,
815,Drama,,
816,Adventure,Children's,
817,Comedy,Musical,
818,Comedy,,
819,Drama,,
820,Drama,Thriller,
821,Comedy,,
822,Comedy,,
823,Drama,,
824,Action,Adventure,Thriller
825,Children's,Comedy,
826,Comedy,Drama,Romance
827,Action,Thriller,
828,Comedy,,
829,Horror,,
830,Horror,,
831,Drama,,
832,Drama,,
834,Drama,,
835,Comedy,Drama,
836,Drama,,
837,Action,Adventure,Sci-Fi
838,Crime,Drama,
839,Drama,,
840,Comedy,Romance,
841,Drama,,
842,Drama,,
846,Action,Crime,Drama
847,Documentary,,
848,Action,Thriller,
849,Drama,,
850,Comedy,,
851,Comedy,Drama,
852,Drama,,
853,Crime,Drama,Romance
854,Comedy,Crime,
855,Comedy,,
856,Crime,,
857,Comedy,,
859,Drama,,
861,Crime,Drama,
862,Drama,,
863,Action,,
864,Drama,,
865,Drama,,
866,Horror,,
867,Sci-Fi,Thriller,
868,Children's,Comedy,
869,Drama,Thriller,
870,Drama,,
871,Children's,Drama,Fantasy
872,Action,,
873,Drama,,
874,Animation,Children's,
875,Romance,,
877,Horror,Thriller,
878,Comedy,Drama,Romance
879,Drama,,
881,Drama,,
882,Drama,,
883,Adventure,War,
884,Comedy,Romance,
885,Musical,Romance,
886,Musical,Romance,
887,Comedy,Musical,
888,Drama,Romance,
889,Mystery,Thriller,
890,Mystery,Thriller,
891,Comedy,,
892,Mystery,Thriller,
893,Comedy,Musical,Romance
894,Drama,Thriller,
895,Comedy,Drama,
896,Comedy,Crime,
897,Comedy,Mystery,Romance
898,Drama,Romance,War
899,Film-Noir,Mystery,
900,Musical,Romance,
901,Comedy,Romance,
902,Comedy,Romance,
903,Children's,Drama,
904,Musical,,
905,Adventure,Children's,Drama
906,Drama,Romance,War
907,Comedy,,
908,Film-Noir,,
909,Drama,,
910,Drama,Mystery,Sci-Fi
911,Adventure,Romance,
912,Drama,,
913,Comedy,,
914,Romance,Thriller,
915,Thriller,,
916,Film-Noir,Romance,Thriller
917,Mystery,Romance,Thriller
918,Romance,,
919,Comedy,Romance,Thriller
920,Comedy,,
921,Comedy,Musical,
922,Comedy,Romance,
923,Comedy,Romance,
924,Musical,,
925,Comedy,Drama,
926,Action,Adventure,
927,Adventure,,
928,Crime,Film-Noir,Mystery
929,Drama,Romance,
930,Drama,,
931,Comedy,Musical,Romance
932,Comedy,Drama,War
933,Comedy,,
934,Drama,,
935,Drama,,
936,Mystery,,
937,Comedy,,
938,Adventure,Comedy,
939,Drama,,
940,Drama,,
941,Comedy,,
942,Drama,Romance,
943,Drama,,
944,Comedy,Mystery,
945,Drama,,
946,Crime,Drama,
947,Drama,,
948,Crime,Drama,
949,Musical,,
950,Western,,
951,Thriller,,
952,Drama,,
953,Western,,
954,Horror,Sci-Fi,
955,Action,Adventure,Romance
956,Comedy,Drama,
957,Drama,,
958,Drama,,
959,Drama,,
960,Drama,Romance,
961,Comedy,Musical,
962,Romance,War,
963,Mystery,,
964,Drama,,
966,Action,,
967,Drama,,
968,Drama,,
970,Comedy,Drama,
971,Documentary,,
972,Adventure,Children's,
973,Drama,Romance,
974,Comedy,Drama,
975,Drama,,
976,Action,Adventure,Thriller
977,Drama,War,
978,Thriller,,
979,Drama,,
980,Drama,,
981,Action,Drama,Western
982,Drama,Thriller,
983,Action,Crime,
984,Crime,,
985,Crime,,
987,Comedy,,
988,Drama,Thriller,
989,Action,Thriller,
990,Children's,Comedy,
991,Drama,,
992,Children's,Comedy,Western
993,Western,,
994,Adventure,Children's,Fantasy
995,Children's,Comedy,
996,Adventure,Children's,Comedy
997,Children's,Drama,
998,Children's,Drama,
999,Children's,Comedy,Drama
1000,Adventure,Children's,
1001,Children's,Comedy,
1002,Adventure,Children's,
1003,Children's,Comedy,Mystery
1004,Adventure,Children's,Fantasy
1005,Comedy,,
1006,Children's,Comedy,
1007,Animation,Children's,Musical
1008,Animation,Children's,
1009,Animation,Children's,Musical
1010,Animation,Children's,
1011,Children's,Drama,
1012,Drama,,
1013,Children's,Comedy,Musical
1014,Animation,Children's,Musical
1015,Adventure,Animation,Children's
1016,Adventure,Children's,Musical
1017,Animation,Children's,Musical
1018,Animation,Children's,
1019,Crime,,
1020,Musical,,
1021,Action,Thriller,
1022,Action,Sci-Fi,Thriller
1023,Drama,,
1024,Documentary,,
1025,Drama,,
1026,Drama,,
1027,Comedy,,
1028,Drama,Romance,
1029,Drama,,
1031,Drama,Romance,
1032,Action,Thriller,
1033,Action,Adventure,
1034,Documentary,Drama,
1035,Drama,,
1037,Crime,Drama,
1038,Drama,,
1039,Thriller,,
1040,Drama,,
1041,Comedy,Musical,Romance
1042,Drama,,
1043,Drama,Romance,
1044,Comedy,Drama,
1045,Crime,Drama,
1046,Drama,,
1047,Drama,,
1048,Animation,Children's,Comedy
1050,Comedy,Musical,Romance
1051,Comedy,Musical,Romance
1052,Crime,Film-Noir,
1053,Film-Noir,Thriller,
1054,Adventure,,
1055,Romance,War,
1056,Adventure,Children's,Comedy
1058,Thriller,,
1059,Comedy,Sci-Fi,
1060,Comedy,War,
1061,Comedy,,
1062,Comedy,,
1063,Comedy,Musical,
1064,Drama,,
1065,Comedy,Musical,
1066,Crime,Drama,
1067,Adventure,Drama,
1068,Mystery,Thriller,
1069,Musical,,
1070,Musical,Romance,
1071,Crime,Thriller,
1072,Drama,War,
1073,Comedy,,
1074,Mystery,Thriller,
1075,Drama,Musical,
1076,Drama,Romance,War
1077,Drama,,
1078,Drama,,
1079,Children's,Drama,Fantasy
1080,Comedy,,
1081,Drama,,
1082,Action,Romance,
1083,Action,Romance,
1084,Action,,
1085,Drama,,
1086,Drama,,
1087,Horror,,
1089,Comedy,,
1093,Documentary,,
1094,Action,Drama,
1095,Comedy,,
1096,Drama,,
1097,Comedy,Drama,
1098,Drama,,
1099,Drama,,
1100,Adventure,Western,
1101,Drama,,
1102,Drama,,
1103,Drama,,
1105,Documentary,,
1106,Drama,,
1107,Comedy,,
1108,Comedy,Fantasy,
1109,Action,Adventure,Sci-Fi
1110,Horror,,
1111,Action,Adventure,Sci-Fi
1112,Horror,,
1113,Drama,,
1114,Drama,,
1115,Comedy,Drama,
1116,Action,Drama,
1117,Comedy,,
1118,Comedy,,
1120,Documentary,,
1121,Drama,,
1124,Drama,,
1126,Documentary,,
1127,Documentary,,
1129,Documentary,,
1130,Animation,Comedy,
1131,Documentary,Drama,
1132,Drama,,
1133,Animation,Comedy,Thriller
1134,Crime,Film-Noir,Thriller
1135,Film-Noir,,
1136,Film-Noir,,
1142,Comedy,,
1143,Drama,,
1144,Comedy,,
1145,Drama,,
1146,Drama,,
1147,Drama,Thriller,
1149,Comedy,,
1150,Horror,,
1151,Documentary,,
1152,Action,,
1153,Comedy,,
1154,Comedy,Drama,Romance
1155,Drama,,
1156,Comedy,,
1157,Comedy,Sci-Fi,
1158,Drama,,
1159,Drama,,
1160,Drama,War,
1161,Crime,Drama,Film-Noir
1162,Comedy,,
1163,Action,,
1164,Drama,Romance,War
1165,Comedy,War,
1166,Drama,,
1167,Drama,,
1168,Drama,,
1169,Comedy,Romance,
1170,Documentary,,
1171,Drama,,
1172,Documentary,,
1173,Documentary,,
1174,Drama,,
1175,Comedy,,
1176,Action,Adventure,Drama
1177,Action,Adventure,Comedy
1178,Action,Adventure,
1179,Sci-Fi,,
1180,Action,Sci-Fi,Thriller
1181,Action,Western,
1182,Comedy,,
1183,Drama,,
1184,Adventure,War,
1185,Action,Animation,Children's
1186,Sci-Fi,,
1187,Drama,,
1188,Drama,War,
1189,Western,,
1190,Action,Adventure,Romance
1191,Comedy,Drama,Romance
1192,Mystery,Thriller,
1193,Crime,Drama,
1194,Action,Horror,Sci-Fi
1195,Action,Adventure,Comedy
1196,Adventure,Romance,
1197,Drama,War,
1198,Action,Thriller,
1199,Horror,Thriller,
1200,Action,Comedy,Musical
1201,Action,Crime,Drama
1202,Action,Drama,War
1203,Animation,Comedy,
1204,Drama,War,
1205,Drama,,
1206,Comedy,Romance,
1207,Crime,Drama,Thriller
1208,Drama,,
1209,Comedy,Romance,
1210,Drama,,
1211,Mystery,Sci-Fi,
1212,Action,Drama,War
1213,Comedy,Crime,
1214,Comedy,,
1215,Comedy,Drama,
1216,Drama,,
1217,Comedy,,
1218,Action,Sci-Fi,Thriller
1219,Comedy,Horror,
1220,Action,Drama,War
1221,Comedy,Drama,
1222,Comedy,Drama,Romance
1223,Drama,,
1224,Drama,,
1225,Drama,Romance,
1226,Crime,Film-Noir,Thriller
1227,Thriller,,
1228,Drama,War,
1229,Drama,,
1230,Film-Noir,Mystery,Thriller
1231,Drama,Sci-Fi,
1232,Adventure,,
1233,Comedy,Horror,
1234,Comedy,War,
1235,Comedy,,
1236,Horror,,
1237,Adventure,Comedy,Drama
1238,Crime,Film-Noir,Thriller
1239,Action,Adventure,Comedy
1240,Adventure,War,
1241,Drama,War,
1242,Action,Drama,Mystery
1243,Comedy,Romance,
1244,Western,,
1245,Film-Noir,Thriller,
1246,Drama,,
1247,Comedy,Mystery,Thriller
1248,Comedy,Sci-Fi,
1249,Drama,,
1250,Drama,War,
1251,Comedy,Drama,
1252,Adventure,Animation,Sci-Fi
1253,Action,Adventure,
1254,Comedy,Drama,
1255,Action,Drama,Romance
1256,Comedy,Horror,
1257,Comedy,Drama,
1258,Drama,,
1259,Comedy,,
1260,Animation,Children's,Musical
1261,Western,,
1262,Film-Noir,Mystery,
1263,Comedy,,
1264,Drama,Romance,
1265,Action,Adventure,Drama
1266,Comedy,Drama,Musical
1267,Documentary,War,
1268,Drama,Romance,
1269,Action,Adventure,
1270,Comedy,,
1271,Drama,,
1272,Comedy,War,
1273,Drama,,
1274,Drama,Romance,
1275,Comedy,,
1276,Drama,Musical,War
1277,Drama,War,
1278,Drama,,
1279,Sci-Fi,,
1280,Drama,,
1281,Adventure,,
1282,Action,Comedy,Western
1283,Drama,,
1284,Drama,Sci-Fi,
1285,Comedy,Romance,
1288,Documentary,,
1289,Comedy,,
1290,Drama,,
1291,Crime,,
1293,Documentary,,
1294,Drama,,
1295,Comedy,,
1298,Action,Horror,Sci-Fi
1299,Horror,,
1300,Horror,,
1301,Horror,,
1302,Horror,,
1303,Horror,,
1304,Horror,,
1305,Horror,,
1306,Horror,,
1307,Horror,,
1308,Comedy,Horror,
1309,Horror,,
1310,Horror,Thriller,
1311,Horror,,
1312,Horror,Sci-Fi,
1313,Action,Horror,
1314,Horror,,
1315,Horror,,
1316,Horror,Romance,
1317,Horror,,
1318,Horror,,
1319,Horror,,
1320,Thriller,,
1321,Film-Noir,Thriller,
1322,Horror,,
1323,Horror,,
1324,Horror,,
1325,Horror,,
1326,Horror,,
1327,Horror,,
1328,Drama,,
1329,Crime,Thriller,
1330,Comedy,Romance,
1331,Drama,,
1332,Horror,Thriller,
1333,Action,Adventure,Sci-Fi
1334,Drama,Romance,
1335,Drama,Thriller,
1336,Adventure,Children's,Comedy
1337,Drama,,
1338,Documentary,,
1339,Drama,,
1340,Drama,,
1341,Action,,
1342,Drama,,
1343,Drama,,
1344,Children's,Comedy,
1346,Drama,Thriller,
1347,Action,Thriller,
1348,Action,Adventure,Sci-Fi
1349,Action,Adventure,Sci-Fi
1350,Action,Adventure,Sci-Fi
1351,Action,Adventure,Sci-Fi
1352,Action,Adventure,Sci-Fi
1353,Action,Adventure,Sci-Fi
1354,Action,Adventure,Comedy
1355,Action,Comedy,Western
1356,Action,Comedy,Western
1357,Comedy,Musical,Romance
1358,Comedy,Musical,Romance
1359,Action,Drama,
1360,Action,Sci-Fi,
1361,Drama,,
1362,Action,,
1363,Western,,
1364,Action,Horror,
1365,Action,Horror,
1366,Action,Horror,
1367,Comedy,,
1368,Action,Comedy,Sci-Fi
1369,Comedy,Drama,
1370,Drama,Romance,
1371,Comedy,,
1372,Comedy,Drama,
1373,Crime,Drama,Sci-Fi
1374,Drama,,
1375,Romance,War,
1376,Drama,,
1378,Drama,,
1379,Crime,Drama,
1380,Animation,Comedy,
1381,Drama,,
1382,Horror,Thriller,
1383,Action,Romance,War
1384,Comedy,Romance,
1385,Comedy,Drama,
1386,Drama,,
1387,Drama,,
1388,Drama,,
1389,Comedy,,
1390,Crime,Drama,Romance
1391,Drama,Musical,
1392,Drama,,
1393,Drama,,
1394,Documentary,,
1395,Documentary,,
1396,Mystery,Thriller,
1397,Drama,,
1399,Comedy,,
1400,Children's,,
1401,Thriller,,
1402,Drama,,
1403,Action,,
1404,Thriller,,
1405,Action,Comedy,
1406,Action,,
1407,Comedy,Horror,
1408,Action,,
1409,Comedy,,
1410,Drama,,
1411,Action,Thriller,
1412,Comedy,,
1413,Comedy,,
1414,Comedy,Romance,
1415,Drama,,
1417,Comedy,,
1418,Comedy,War,
1419,Comedy,,
1420,Crime,,
1422,Comedy,,
1423,War,,
1424,Comedy,Romance,
1425,Comedy,,
1426,Comedy,Romance,
1427,Comedy,,
1428,Comedy,Romance,
1429,Romance,,
1430,Mystery,Thriller,
1431,Children's,Comedy,Mystery
1432,Comedy,,
1434,Comedy,Romance,
1435,Mystery,,
1436,Drama,,
1437,Crime,Drama,
1439,Comedy,Romance,
1440,Documentary,,
1441,Drama,,
1442,Crime,Thriller,
1443,Action,Comedy,Crime
1444,Children's,Comedy,
1445,Romance,,
1446,Comedy,Drama,
1447,Romance,,
1448,Action,Romance,Thriller
1449,Action,Drama,Thriller
1450,Comedy,Drama,
1451,Drama,Thriller,
1452,Mystery,,
1453,Comedy,,
1454,Drama,,
1455,Drama,Musical,
1456,Action,Drama,Thriller
1457,Animation,Children's,Musical
1458,Comedy,,
1459,Romance,,
1460,Comedy,,
1461,Action,Adventure,Children's
1462,Drama,Romance,
1463,Action,,
1464,Drama,Romance,
1465,Action,Adventure,Thriller
1466,Comedy,Crime,
1467,Crime,,
1468,Romance,,
1469,Comedy,,
1470,Drama,,
1471,Drama,War,
1472,Drama,,
1473,Drama,,
1474,Drama,,
1475,Comedy,,
1476,Comedy,,
1477,Romance,,
1478,Drama,Thriller,
1479,Comedy,,
1480,Comedy,,
1481,Action,Thriller,
1482,Drama,,
1483,Romance,,
1484,Drama,,
1485,Action,Crime,Romance
1487,Action,Adventure,Children's
1488,Comedy,,
1489,Action,Sci-Fi,
1490,Comedy,,
1491,Drama,,
1492,Drama,,
1493,Comedy,,
1494,Drama,,
1495,Drama,,
1496,Drama,Romance,
1497,Comedy,,
1498,Adventure,Children's,
1499,Comedy,Crime,
1500,Comedy,Romance,
1501,Comedy,Drama,Romance
1502,Drama,,
1503,Action,Adventure,Sci-Fi
1504,Drama,,
1505,Comedy,,
1506,Children's,Drama,
1507,Drama,,
1508,Drama,Romance,
1509,Comedy,Romance,
1510,Adventure,Children's,Drama
1511,Action,Adventure,Thriller
1512,Comedy,,
1513,Drama,Romance,
1514,Drama,,
1515,Action,Romance,Thriller
1516,Comedy,,
1518,Comedy,,
1519,Action,Adventure,Crime
1520,Drama,,
1521,Comedy,Romance,
1522,Comedy,Thriller,
1523,Adventure,Animation,Children's
1524,Drama,,
1526,Comedy,Romance,
1527,Sci-Fi,,
1528,Comedy,Romance,
1529,Drama,,
1530,Action,Sci-Fi,Thriller
1531,Romance,,
1532,Drama,,
1535,Drama,,
1536,Action,Adventure,Comedy
1537,Comedy,,
1538,Adventure,Children's,
1539,Children's,Fantasy,
1540,Drama,Sci-Fi,
1541,Comedy,,
1542,Action,Drama,War
1543,Action,Adventure,
1544,Children's,Comedy,
1545,Crime,Drama,Mystery
1546,Action,Mystery,Sci-Fi
1547,Action,Adventure,Sci-Fi
1548,Children's,Comedy,
1549,Comedy,Romance,
1550,Drama,,
1551,Adventure,Children's,Drama
1552,Drama,,
1553,Action,Mystery,Romance
1554,Crime,Drama,Thriller
1555,Action,,
1556,Drama,Romance,
1557,Crime,Drama,Film-Noir
1558,Comedy,,
1559,Sci-Fi,Thriller,
1560,Action,Comedy,
1561,Adventure,Romance,
1562,Action,Adventure,
1563,Action,Thriller,
1564,Drama,,
1565,Action,Thriller,
1566,Drama,,
1567,Comedy,,
1568,Drama,,
1569,Comedy,,
1570,Adventure,Thriller,
1571,Action,Thriller,War
1572,Crime,Film-Noir,Mystery
1573,Drama,War,
1574,Crime,Drama,Thriller
1575,Drama,,
1576,Comedy,Drama,
1577,Horror,,
1578,Drama,,
1579,Mystery,Thriller,
1580,Action,Drama,Thriller
1581,Action,Crime,Mystery
1583,Comedy,Romance,
1584,Comedy,Drama,
1585,Thriller,,
1586,Comedy,Romance,
1587,Drama,,
1588,Drama,,
1589,Action,Thriller,
1590,Drama,Romance,
1591,Comedy,,
1592,Comedy,,
1593,Comedy,Drama,
1594,Drama,Romance,
1595,Horror,Mystery,Thriller
1596,Crime,Horror,Mystery
1597,Comedy,,
1598,Crime,Thriller,
1599,Comedy,Drama,Thriller
1600,Documentary,,
1601,Drama,,
1602,Drama,,
1603,Documentary,,
1604,Drama,Sci-Fi,Thriller
1605,Children's,Drama,Fantasy
1606,Horror,,
1607,Romance,,
1608,Documentary,,
1609,Romance,Thriller,
1610,Drama,,
1611,Drama,,
1612,Thriller,,
1613,Crime,,
1614,Comedy,,
1615,Drama,,
1616,Comedy,,
1617,Romance,,
1618,Action,Drama,
1619,Drama,,
1620,Romance,,
1621,Drama,War,
1622,Crime,,
1623,Drama,,
1624,Drama,,
1625,Drama,Romance,Thriller
1626,Crime,Thriller,
1627,Action,Adventure,Sci-Fi
1628,Comedy,,
1629,Drama,,
1630,Comedy,,
1631,Drama,Romance,
1632,Action,Adventure,
1633,Drama,,
1634,Drama,Romance,Thriller
1635,Romance,,
1636,Romance,,
1637,Crime,Thriller,
1638,Action,Thriller,
1639,Animation,Children's,Musical
1640,Comedy,Mystery,
1641,Action,Horror,Sci-Fi
1642,Horror,Sci-Fi,
1643,Drama,,
1644,Drama,,
1645,Drama,,
1646,Drama,War,
1649,Drama,,
1650,Comedy,Drama,
1651,Children's,Comedy,Fantasy
1652,Comedy,,
1653,Drama,,
1656,Children's,Comedy,
1658,Thriller,,
1660,Comedy,Crime,Drama
1661,Children's,Comedy,
1662,Romance,,
1663,Thriller,,
1665,Horror,Thriller,
1666,Thriller,,
1667,Drama,,
1668,Action,Adventure,Sci-Fi
1669,Drama,Romance,
1670,Action,Romance,Thriller
1672,Drama,,
1673,Drama,,
1674,Drama,,
1675,Drama,,
1676,Drama,,
1677,Crime,Drama,
1678,Drama,,
1679,Comedy,,
1680,Comedy,Crime,Mystery
1681,Drama,Romance,
1682,Comedy,Drama,
1683,Drama,Romance,
1685,Action,Children's,
1687,Drama,,
1689,Documentary,,
1690,Action,Adventure,Thriller
1691,Comedy,,
1692,Comedy,Drama,
1693,Film-Noir,Sci-Fi,Thriller
1694,Romance,,
1695,Adventure,Children's,Fantasy
1696,Action,Thriller,
1697,Comedy,,
1698,Action,Mystery,Thriller
1699,Romance,,
1700,Horror,,
1702,Drama,,
1703,Drama,,
1704,Comedy,Musical,
1705,Action,Horror,Sci-Fi
1706,Comedy,Thriller,
1708,Drama,Romance,
1710,Action,Thriller,
1711,Romance,Thriller,
1712,Horror,,
1713,Action,Comedy,Musical
1714,Action,Drama,
1717,Comedy,Romance,
1718,Adventure,Sci-Fi,Thriller
1719,Documentary,,
1721,Comedy,Romance,
1722,Film-Noir,Mystery,Thriller
1723,Comedy,Drama,
1724,Action,Crime,
1725,Documentary,,
1726,Action,Drama,
1728,Crime,Drama,
1729,Action,Thriller,
1730,Comedy,,
1731,Comedy,Drama,
1732,Action,Drama,
1733,Documentary,,
1734,Thriller,,
1735,Crime,Drama,
1736,Action,Drama,Romance
1737,Crime,Drama,
1738,Crime,Drama,Mystery
1739,Adventure,Children's,Comedy
1740,Drama,,
1741,Comedy,Crime,Drama
1742,Drama,,
1743,Drama,,
1744,Children's,Comedy,Drama
1745,Drama,,
1746,Drama,,
1747,Comedy,Drama,
1748,Comedy,Drama,Romance
1750,Drama,,
1751,Comedy,Romance,
1752,Children's,Comedy,
1753,Comedy,Thriller,
1754,Action,Drama,
1755,Adventure,Children's,
1756,Comedy,Documentary,
1757,Drama,Romance,
1758,Comedy,,
1759,Action,Sci-Fi,Thriller
1760,Action,Drama,
1761,Action,Drama,Thriller
1762,Drama,Thriller,
1763,Romance,,
1764,Drama,,
1765,Comedy,,
1766,Comedy,,
1767,Drama,,
1768,Drama,Thriller,
1769,Crime,Drama,
1770,Children's,Comedy,
1771,Drama,,
1772,Comedy,Thriller,
1773,Drama,,
1775,Adventure,Children's,Comedy
1776,Adventure,,
1777,Drama,Romance,
1778,Drama,Romance,
1779,Drama,Thriller,
1780,Comedy,,
1781,Comedy,Romance,
1782,Comedy,,
1783,Documentary,Musical,
1784,Comedy,,
1785,Action,Comedy,
1786,Drama,,
1787,Drama,,
1788,Comedy,Thriller,
1789,Horror,Sci-Fi,
1790,Comedy,,
1791,Comedy,,
1792,Documentary,,
1793,Action,Comedy,
1794,Action,Adventure,
1795,Drama,War,
1796,Action,Thriller,
1797,Comedy,Drama,
1798,Comedy,Drama,
1799,Drama,,
1800,Drama,,
1801,Comedy,Romance,
1802,Comedy,,
1803,Action,Drama,Sci-Fi
1804,Drama,,
1805,Comedy,Romance,
1806,Drama,,
1807,Drama,,
1808,Adventure,Animation,Children's
1809,Action,Sci-Fi,
1810,Comedy,,
1811,Comedy,Drama,
1812,Comedy,Drama,
1813,Comedy,,
1814,Adventure,Comedy,
1815,Comedy,Drama,Romance
1816,Thriller,,
1817,Drama,,
1818,Horror,Thriller,
1819,Mystery,Thriller,
1820,Drama,,
1821,Adventure,Comedy,Romance
1822,Comedy,Drama,Romance
1823,Comedy,,
1824,Drama,Romance,
1825,Drama,War,
1826,Adventure,Drama,
1827,Drama,,
1828,Documentary,,
1829,Drama,Romance,
1830,Comedy,,
1831,Comedy,Drama,
1832,Drama,,
1833,Comedy,Romance,
1834,Animation,Children's,
1835,Drama,Thriller,
1836,Mystery,Sci-Fi,Thriller
1837,Action,Comedy,Crime
1838,Comedy,,
1839,Action,Crime,Romance
1840,Drama,Mystery,
1841,Comedy,Drama,
1842,Drama,,
1843,Action,Comedy,Drama
1844,Action,Adventure,Sci-Fi
1845,Action,Comedy,Crime
1846,Children's,Comedy,
1847,Animation,Children's,Fantasy
1848,Sci-Fi,Thriller,
1849,Drama,,
1850,Comedy,,
1851,Horror,Sci-Fi,
1852,Drama,Romance,War
1853,Musical,,
1854,War,,
1855,Western,,
1856,Drama,,
1857,Drama,,
1858,Adventure,,
1859,Musical,,
1860,Drama,,
1861,Comedy,,
1862,Drama,,
1863,Drama,War,
1864,Comedy,,
1865,Drama,,
1866,Drama,War,
1867,Drama,,
1868,Drama,,
1869,Drama,,
1870,Drama,,
1871,Drama,Romance,War
1872,Crime,Drama,
1873,Drama,Romance,
1874,Musical,Romance,
1875,Comedy,,
1876,Drama,,
1877,Drama,Mystery,
1878,Musical,,
1879,Drama,,
1880,Action,Crime,Drama
1881,Action,Drama,
1882,Drama,,
1883,Drama,,
1884,Drama,,
1885,Comedy,Drama,
1886,Drama,Romance,
1887,Drama,War,
1888,Drama,,
1889,Drama,,
1890,Comedy,,
1891,Drama,Mystery,
1892,Comedy,Sci-Fi,
1893,Comedy,,
1894,Adventure,Children's,Fantasy
1895,Comedy,Drama,
1896,Horror,,
1897,Horror,,
1898,Horror,,
1899,Horror,,
1900,Horror,,
1901,Horror,,
1902,Horror,,
1903,Horror,,
1904,Horror,,
1905,Horror,,
1906,Horror,,
1907,Horror,,
1908,Horror,,
1909,Horror,,
1910,Horror,,
1911,Horror,,
1912,Horror,,
1913,Horror,,
1914,Horror,,
1915,Horror,,
1916,Horror,,
1917,Horror,,
1918,Horror,,
1919,Horror,,
1920,Horror,,
1921,Horror,Thriller,
1922,Horror,Thriller,
1923,Horror,Thriller,
1924,Horror,,
1925,Horror,,
1926,Horror,,
1927,Action,Comedy,Crime
1928,Action,Comedy,Crime
1929,Action,Comedy,Crime
1930,Comedy,Horror,
1931,Comedy,Horror,
1932,Adventure,Children's,Fantasy
1933,Action,Adventure,Romance
1934,Comedy,,
1935,Crime,Drama,Film-Noir
1936,Sci-Fi,Thriller,
1937,Sci-Fi,,
1938,Comedy,Sci-Fi,
1939,Comedy,Sci-Fi,Western
1940,Action,Adventure,
1941,Children's,Comedy,
1942,Children's,Comedy,Fantasy
1943,Children's,Comedy,Western
1944,Children's,Fantasy,Musical
1945,Animation,Children's,
1946,Action,Drama,
1947,Drama,Romance,
1948,Fantasy,Sci-Fi,
1949,Drama,,
1950,Action,Crime,Drama
1951,Drama,Mystery,
1952,Drama,Romance,
1953,Horror,Thriller,
1954,Comedy,Crime,
1955,Action,Drama,War
1956,Comedy,Romance,
1958,Children's,Comedy,
1959,Children's,Comedy,
1960,Animation,Children's,
1961,Sci-Fi,,
1962,Children's,Comedy,
1963,Children's,Comedy,
1964,Adventure,Children's,Comedy
1965,Children's,Comedy,Sci-Fi
1966,Adventure,Children's,
1967,Children's,Comedy,
1968,Action,Adventure,Children's
1969,Children's,Comedy,
1970,Adventure,Children's,Fantasy
1971,Comedy,,
1972,Adventure,Children's,Drama
1973,Adventure,Children's,Sci-Fi
1974,Children's,,
1975,Animation,Children's,
1976,Comedy,Musical,
1977,Adventure,Children's,Comedy
1978,Adventure,Children's,Comedy
1979,Children's,Comedy,
1980,Children's,Comedy,Sci-Fi
1981,Adventure,Children's,Comedy
1982,Comedy,Western,
1983,Adventure,Children's,
1984,Adventure,Children's,
1985,Action,Thriller,
1986,Children's,Drama,
1987,Comedy,,
1988,Documentary,,
1989,Drama,Romance,
1990,Drama,Romance,
1991,Comedy,Documentary,
1992,Comedy,Drama,Romance
1993,Film-Noir,,
1994,Drama,Romance,War
1995,Drama,,
1996,Drama,,
1997,Drama,,
1998,Drama,,
1999,Comedy,,
2000,Comedy,,
2001,Drama,,
2002,Drama,War,
2003,Drama,Mystery,
2004,Adventure,Children's,
2005,Animation,Children's,Comedy
2006,Children's,Drama,
2007,Animation,Children's,Comedy
2008,Animation,Children's,Comedy
2009,Children's,Comedy,
2010,Children's,Musical,
2011,Children's,Musical,
2012,Animation,Children's,
2013,Drama,Fantasy,
2014,Animation,Children's,Fantasy
2015,Adventure,Comedy,Musical
2016,Animation,Children's,
2017,Animation,Children's,
2018,Children's,Sci-Fi,
2019,Animation,Children's,Musical
2020,Adventure,Children's,Fantasy
2021,Action,Adventure,Sci-Fi
2022,Children's,Comedy,
2023,Animation,Children's,Musical
2024,Children's,Horror,
2025,Children's,Comedy,
2026,Adventure,Animation,Children's
2027,Comedy,Fantasy,Romance
2028,Adventure,Drama,
2029,Animation,Children's,Comedy
2030,Adventure,Children's,
2031,Drama,,
2032,Action,Adventure,Fantasy
2033,Drama,War,
2034,Horror,Thriller,
2035,Comedy,Romance,
2036,Comedy,,
2037,Comedy,Crime,Thriller
2038,Comedy,,
2039,Crime,Drama,
2040,Horror,Thriller,
2041,Drama,,
2042,Action,Adventure,
2043,Adventure,Animation,Children's
2044,Drama,Sci-Fi,
2045,Horror,Thriller,
2046,Horror,,
2047,Drama,Horror,
2048,Horror,Thriller,
2049,Horror,Thriller,
2050,Animation,Children's,
2051,Comedy,,
2052,Drama,Romance,
2053,Action,Crime,Mystery
2054,Drama,Romance,
2055,Comedy,,
2056,Documentary,,
2057,Crime,Drama,Romance
2058,Drama,,
2059,Drama,,
2060,Adventure,Comedy,
2061,Comedy,,
2062,Adventure,Musical,
2063,Comedy,,
2064,Animation,Children's,
2065,Animation,Children's,Drama
2066,Animation,Children's,
2067,Children's,Fantasy,Sci-Fi
2068,Animation,Children's,Comedy
2069,Animation,Children's,Comedy
2070,Adventure,Fantasy,Romance
2071,Comedy,,
2072,Comedy,Drama,Romance
2073,Drama,Romance,
2074,Drama,,
2075,Comedy,Horror,
2076,Comedy,Horror,
2077,Comedy,,
2078,Comedy,,
2079,Children's,Comedy,
2080,Action,Adventure,
2081,Drama,Romance,
2082,Comedy,,
2083,Comedy,Drama,
2084,Romance,,
2085,Crime,Horror,
2086,Crime,Horror,
2087,Horror,Thriller,
2088,Adventure,Children's,Fantasy
2089,Adventure,Children's,Fantasy
2090,Comedy,Horror,
2091,Drama,,
2092,Drama,,
2093,Drama,Romance,
2094,Action,Adventure,Horror
2095,Drama,Romance,
2096,Comedy,,
2097,Action,Comedy,
2098,Comedy,Drama,Romance
2099,Comedy,,
2100,Adventure,Fantasy,Sci-Fi
2101,Comedy,Fantasy,
2102,Drama,Romance,
2103,Thriller,,
2104,Comedy,Thriller,
2105,Thriller,,
2106,Thriller,,
2107,Thriller,,
2108,Thriller,,
2109,Drama,Film-Noir,Thriller
2110,Thriller,,
2111,Mystery,Thriller,
2112,Thriller,,
2113,Film-Noir,Thriller,
2114,Mystery,Thriller,
2115,Drama,,
2116,Animation,,
2117,Drama,,
2118,Comedy,,
2119,Drama,,
2120,Action,Adventure,Fantasy
2121,Action,Crime,Drama
2122,Comedy,,
2123,Action,,
2124,Drama,,
2125,Documentary,,
2127,Drama,,
2128,Drama,,
2129,Drama,Thriller,War
2130,Film-Noir,Thriller,
2131,Thriller,,
2132,Comedy,,
2133,Mystery,Thriller,
2134,Drama,,
2135,Comedy,Mystery,Romance
2136,Crime,Thriller,
2137,Thriller,,
2138,Thriller,,
2139,Thriller,,
2140,Comedy,Musical,
2141,Thriller,,
2142,Comedy,Romance,
2144,Comedy,Musical,
2145,Drama,,
2146,Mystery,Thriller,
2148,Thriller,,
2150,Comedy,,
2153,Drama,,
2154,Thriller,,
2158,Crime,Drama,
2159,Sci-Fi,Thriller,
2160,Drama,,
2161,Drama,,
2162,Drama,War,
2163,Drama,,
2164,Drama,,
2165,Comedy,Drama,
2166,Comedy,Drama,
2167,Drama,,
2168,Comedy,,
2169,Drama,,
2170,Comedy,Drama,Romance
2171,Comedy,Romance,
2172,Comedy,Drama,
2173,Comedy,,
2174,Comedy,,
2175,Comedy,Drama,Romance
2176,Comedy,,
2177,Drama,,
2178,Comedy,,
2179,Comedy,Drama,
2180,Action,Comedy,Fantasy
2181,Drama,,
2182,Comedy,,
2183,Horror,Sci-Fi,
2184,Comedy,Romance,
2185,Action,,
2186,Comedy,Romance,
2187,Action,Crime,
2188,Comedy,,
2189,Comedy,Drama,Romance
2190,Thriller,,
2191,Drama,,
2192,Adventure,Comedy,
2193,Comedy,Romance,
2194,Mystery,Thriller,
2195,Crime,Drama,
2196,Drama,,
2198,Drama,,
2199,Drama,,
2200,Action,Thriller,
2202,Action,Adventure,Sci-Fi
2203,Drama,,
2204,Drama,,
2205,Action,Crime,Thriller
2206,Horror,Thriller,
2207,Crime,,
2208,Crime,,
2209,Comedy,Drama,
2210,Drama,,
2211,Drama,,
2212,Drama,,
2213,Comedy,,
2214,Sci-Fi,Thriller,War
2215,Action,Horror,Sci-Fi
2216,Comedy,Drama,
2217,Comedy,Drama,
2218,Drama,Romance,
2219,Romance,,
2220,Drama,,
2221,Animation,Children's,
2222,Comedy,,
2223,Comedy,,
2224,Drama,Romance,
2225,Thriller,,
2226,Comedy,,
2227,Comedy,Musical,
2228,Comedy,,
2229,Comedy,,
2230,Drama,Musical,
2231,Drama,,
2232,Drama,,
2233,Comedy,,
2234,Action,Drama,
2235,Action,Crime,
2236,Drama,,
2237,Drama,,
2238,Mystery,Sci-Fi,
2239,Drama,,
2240,Drama,,
2241,Drama,,
2242,Horror,Thriller,
2243,Drama,Romance,
2244,Comedy,,
2245,Comedy,,
2247,Drama,Thriller,
2248,Comedy,,
2249,Action,Adventure,Sci-Fi
2250,Documentary,,
2251,Comedy,Drama,
2252,Comedy,,
2253,Drama,Thriller,
2254,Horror,,
2255,Horror,,
2256,Drama,,
2257,Documentary,,
2258,Comedy,Romance,
2259,Crime,Drama,
2260,Drama,,
2261,Action,Thriller,
2262,Comedy,,
2263,Drama,,
2264,Drama,,
2265,Horror,Mystery,Thriller
2266,Comedy,Romance,
2267,Romance,,
2268,Drama,,
2269,Comedy,,
2270,Drama,,
2271,Action,Adventure,Drama
2272,Drama,,
2273,Sci-Fi,Thriller,
2274,Action,,
2275,Drama,,
2276,Comedy,Thriller,
2277,Comedy,,
2278,Drama,,
2279,Comedy,Drama,
2280,Action,Thriller,
2281,Animation,Children's,Comedy
2282,Animation,Children's,Comedy
2283,Comedy,,
2284,Drama,,
2285,Drama,,
2286,Comedy,,
2287,Drama,,
2288,Comedy,,
2289,Drama,,
2290,Action,Sci-Fi,
2291,Action,Sci-Fi,
2292,Action,Sci-Fi,
2293,Action,Adventure,Horror
2294,Action,Adventure,Horror
2295,Action,Adventure,Horror
2296,Comedy,Romance,
2297,Action,Adventure,Drama
2298,Comedy,,
2299,Comedy,,
2300,Action,Adventure,
2301,Comedy,Drama,
2302,Comedy,,
2303,Action,,
2304,Horror,Sci-Fi,
2305,Comedy,,
2306,Comedy,,
2307,Comedy,,
2308,Comedy,,
2309,Comedy,,
2310,Comedy,,
2311,Children's,Comedy,
2312,Comedy,Romance,
2313,Drama,,
2314,Comedy,Crime,
2315,Drama,Romance,
2316,Crime,Horror,Thriller
2317,Comedy,,
2318,Crime,Thriller,
2319,Comedy,Drama,
2320,Action,Sci-Fi,
2321,Animation,Musical,
2322,Comedy,,
2323,Comedy,Romance,
2324,Drama,,
2325,Drama,,
2326,Adventure,Children's,Fantasy
2327,Children's,Drama,
2328,Western,,
2329,Action,War,
2330,Action,,
2331,Action,War,
2332,Action,Adventure,Comedy
2333,Action,Adventure,Comedy
2334,Comedy,Sci-Fi,
2335,Comedy,Sci-Fi,
2336,Action,Drama,
2337,Action,Drama,
2338,Action,Drama,
2339,Action,Drama,
2340,Comedy,Mystery,
2341,Action,Adventure,Mystery
2342,Drama,Romance,
2343,Comedy,,
2344,Comedy,Drama,
2345,Comedy,,
2346,Drama,Thriller,
2347,Drama,,
2348,Action,Adventure,Drama
2349,Action,Adventure,Drama
2350,Comedy,,
2351,Comedy,Romance,
2352,Crime,,
2353,Comedy,Drama,Romance
2354,Action,Drama,War
2355,Horror,Sci-Fi,
2356,Adventure,Children's,Drama
2357,Adventure,Children's,Drama
2358,Comedy,Drama,
2359,Drama,,
2360,Drama,,
2361,Drama,,
2362,Drama,,
2363,Comedy,,
2364,Drama,,
2365,Drama,Thriller,
2366,Drama,,
2367,Drama,,
2368,Drama,Western,
2369,Drama,,
2370,Drama,Romance,
2371,Comedy,Drama,
2372,Drama,,
2373,Thriller,,
2374,Comedy,Drama,
2375,Horror,Sci-Fi,
2376,Adventure,Children's,
2377,Adventure,Children's,Sci-Fi
2378,Horror,,
2379,Horror,,
2380,Drama,Fantasy,
2381,Horror,Sci-Fi,
2382,Horror,Sci-Fi,
2383,Horror,Sci-Fi,
2384,Action,Comedy,
2385,Comedy,Crime,
2386,Horror,,
2387,Horror,,
2388,Horror,,
2389,Horror,,
2390,Comedy,,
2391,Horror,,
2392,Horror,,
2393,Drama,,
2394,Mystery,,
2395,Action,Comedy,Romance
2396,Comedy,Romance,
2397,Adventure,Comedy,
2398,Adventure,Comedy,
2399,Comedy,,
2400,Comedy,,
2401,Drama,,
2402,Action,Mystery,Thriller
2403,Action,War,
2404,Adventure,,
2405,Comedy,Western,
2406,Drama,Thriller,
2407,Drama,,
2408,Drama,Romance,
2409,Comedy,Romance,
2410,Comedy,Horror,Thriller
2411,Comedy,,
2412,Comedy,Romance,
2413,Drama,,
2414,Action,Comedy,
2415,Drama,Horror,Thriller
2417,Action,Thriller,
2418,Comedy,Romance,
2419,Comedy,,
2420,Drama,,
2421,Documentary,,
2422,Animation,Sci-Fi,
2423,Comedy,Romance,
2424,Romance,,
2425,Comedy,Sci-Fi,
2426,Comedy,,
2427,Comedy,,
2428,Drama,,
2429,Comedy,Romance,
2430,Drama,,
2431,Comedy,Drama,
2432,Thriller,,
2433,Comedy,Drama,Romance
2434,Comedy,,
2436,Comedy,,
2437,Comedy,Romance,
2438,Crime,,
2439,Drama,,
2440,Horror,,
2441,Horror,,
2442,Horror,,
2443,Horror,,
2444,Horror,,
2445,Comedy,,
2446,Horror,,
2447,Drama,,
2448,Drama,,
2449,Drama,,
2450,Drama,Thriller,
2451,Action,Drama,
2452,Action,Horror,Sci-Fi
2453,Sci-Fi,,
2454,Action,Sci-Fi,Thriller
2455,Action,Adventure,Sci-Fi
2456,Action,Sci-Fi,
2457,Action,Sci-Fi,
2458,Action,Sci-Fi,
2459,Action,Sci-Fi,
2460,Action,Sci-Fi,
2461,Action,,
2462,Action,,
2463,Drama,,
2464,Adventure,,
2465,Documentary,,
2466,Comedy,,
2467,Action,Crime,Drama
2468,Drama,,
2469,Comedy,Crime,Thriller
2470,Comedy,,
2471,Drama,,
2472,Comedy,,
2473,Drama,,
2475,Horror,,
2476,Action,Sci-Fi,
2477,Horror,Thriller,
2478,Drama,Thriller,
2479,Comedy,,
2480,Horror,Sci-Fi,Thriller
2481,Horror,Sci-Fi,Thriller
2482,Comedy,,
2483,Comedy,Drama,Romance
2484,Drama,,
2485,Comedy,Romance,
2486,Animation,Children's,
2487,Drama,Horror,
2488,Crime,Thriller,
2489,Drama,,
2490,Drama,,
2492,Musical,,
2493,Animation,Children's,
2494,Comedy,,
2495,Action,Crime,
2496,Drama,Romance,
2497,Drama,Romance,
2498,Action,Sci-Fi,Thriller
2499,Comedy,Romance,
2500,Drama,,
2501,Comedy,,
2502,Drama,,
2503,Drama,,
2504,Comedy,Drama,
2505,Sci-Fi,,
2506,Drama,,
2507,Crime,,
2508,Comedy,Romance,
2509,Action,Comedy,
2510,Mystery,,
2511,Comedy,,
2512,Drama,Romance,
2513,Comedy,Crime,Thriller
2514,Comedy,,
2516,Comedy,Drama,Romance
2517,Drama,,
2518,Comedy,Romance,
2519,Drama,,
2520,Comedy,,
2521,Drama,Romance,Sci-Fi
2523,Comedy,Drama,
2524,Comedy,Romance,
2525,Comedy,,
2526,Comedy,,
2527,Action,Sci-Fi,Thriller
2529,Adventure,Sci-Fi,
2532,Crime,Thriller,
2533,Comedy,Horror,
2534,Drama,,
2535,Thriller,,
2536,Drama,,
2537,Drama,,
2538,Drama,,
2539,Drama,,
2540,Action,Horror,Sci-Fi
2541,Action,Horror,Sci-Fi
2542,Adventure,Sci-Fi,
2543,Action,Crime,
2544,Action,Adventure,Horror
2545,Comedy,,
2546,Drama,,
2547,Drama,Romance,
2548,Drama,Romance,
2549,Comedy,Fantasy,
2550,Comedy,,
2551,Drama,,
2552,Action,,
2553,Comedy,Drama,Romance
2554,Documentary,Drama,
2555,Action,Adventure,Fantasy
2556,Comedy,Romance,
2557,Drama,,
2558,Comedy,Film-Noir,Thriller
2559,Drama,,
2560,Horror,Romance,
2561,Horror,,
2562,Horror,,
2563,Horror,,
2564,Horror,,
2565,Horror,,
2566,Drama,,
2567,Action,Adventure,Sci-Fi
2568,Action,Adventure,Sci-Fi
2569,Action,Adventure,Sci-Fi
2570,Action,Adventure,Sci-Fi
2571,Horror,,
2572,Horror,,
2573,Horror,,
2574,Horror,,
2575,Horror,,
2576,Horror,,
2577,Horror,,
2578,Horror,,
2579,Horror,,
2580,Horror,,
2581,Horror,,
2582,Horror,,
2583,Horror,Sci-Fi,
2584,Comedy,Horror,Musical
2585,Sci-Fi,,
2586,Comedy,Documentary,
2587,Sci-Fi,,
2588,Sci-Fi,,
2589,Action,Sci-Fi,War
2590,Sci-Fi,,
2591,Horror,Sci-Fi,
2592,Sci-Fi,,
2593,Sci-Fi,,
2594,Sci-Fi,,
2595,Horror,Sci-Fi,
2596,War,,
2597,War,,
2598,Comedy,Romance,
2599,Drama,Sci-Fi,Thriller
2600,Drama,,
2601,Drama,,
2602,Comedy,Drama,Romance
2603,Drama,Thriller,
2604,Documentary,,
2605,Drama,,
2606,Drama,Romance,
2608,Comedy,Romance,Sci-Fi
2609,Drama,,
2610,Comedy,,
2612,Comedy,Drama,
2613,Drama,Mystery,
2614,Animation,Children's,
2615,Drama,Thriller,
2616,Documentary,,
2617,Comedy,,
2618,Drama,,
2619,Action,Crime,Romance
2620,Documentary,,
2621,Comedy,,
2622,Comedy,,
2623,Comedy,Drama,Romance
2625,Action,Comedy,Sci-Fi
2626,Animation,Comedy,
2627,Action,Sci-Fi,Western
2628,Drama,,
2629,Drama,,
2630,Drama,Romance,
2631,Drama,,
2632,Comedy,,
2633,Thriller,,
2634,Romance,,
2635,Children's,Comedy,
2636,Horror,,
2637,Drama,,
2638,Drama,,
2639,Horror,Thriller,
2640,Drama,,
2641,Comedy,Romance,
2642,Comedy,Horror,
2643,Comedy,Horror,
2644,Comedy,,
2645,Horror,Thriller,
2646,Action,Adventure,Children's
2647,Romance,,
2648,Action,Sci-Fi,Thriller
2649,Action,Adventure,Comedy
2650,Comedy,Romance,
2651,Drama,,
2652,Crime,Film-Noir,
2653,Film-Noir,,
2654,Drama,,
2655,Drama,,
2656,Drama,,
2657,Drama,,
2658,Drama,,
2659,Adventure,Comedy,
2660,Drama,,
2661,Action,Adventure,Comedy
2662,Comedy,,
2663,Action,,
2664,Comedy,Drama,
2665,Drama,,
2666,Horror,,
2667,Action,Thriller,
2668,Comedy,Drama,
2669,Drama,,
2670,Drama,,
2671,Drama,,
2672,Comedy,Horror,Musical
2673,Comedy,Horror,
2674,Action,Adventure,
2675,Drama,Mystery,
2676,Comedy,Drama,
2677,Comedy,,
2678,Comedy,Mystery,
2679,Thriller,,
2680,Horror,,
2681,Drama,,
2682,Action,,
2683,Drama,,
2684,Drama,,
2685,Comedy,,
2686,Drama,,
2687,Animation,Children's,
2688,Thriller,,
2689,Action,Thriller,
2690,Crime,Drama,Thriller
2691,Comedy,Drama,
2692,Comedy,Drama,
2693,Comedy,,
2694,Comedy,,
2695,Crime,Mystery,
2696,Comedy,,
2697,Drama,,
2698,Comedy,,
2699,Drama,,
2700,Comedy,Romance,
2701,Drama,,
2702,Documentary,,
2703,Drama,,
2704,Thriller,,
2705,Comedy,,
2706,Comedy,Horror,
2707,Horror,,
2708,Horror,,
2709,Horror,,
2710,Horror,,
2711,Horror,,
2712,Comedy,,
2713,Horror,,
2714,Comedy,,
2715,Horror,,
2716,Horror,,
2717,Comedy,,
2718,Comedy,,
2719,Comedy,Horror,
2720,Comedy,,
2721,Comedy,,
2722,Comedy,,
2723,Comedy,Fantasy,
2724,Comedy,,
2725,Comedy,,
2726,Animation,Children's,
2727,Drama,Romance,
2728,Action,Romance,Thriller
2729,Thriller,,
2730,Comedy,Drama,
2731,Comedy,Romance,
2732,Comedy,Thriller,
2733,Action,Sci-Fi,
2734,Action,Sci-Fi,
2735,Comedy,,
2736,Animation,Mystery,
2737,Comedy,,
2738,Action,Thriller,
2739,Documentary,,
2740,Horror,,
2741,Action,War,
2742,Action,War,
2743,Action,War,
2744,Action,War,
2745,Thriller,,
2746,Drama,,
2747,Adventure,Drama,
2748,Adventure,Romance,
2749,Action,Drama,
2750,Documentary,,
2751,Drama,,
2752,Action,Horror,Thriller
2753,Sci-Fi,Thriller,
2754,Children's,Comedy,
2755,Comedy,Drama,
2756,Drama,,
2757,Drama,,
2759,Romance,War,
2760,Comedy,Romance,
2761,Action,Thriller,
2762,Comedy,,
2763,Comedy,Romance,
2765,Drama,,
2766,Thriller,,
2767,Thriller,,
2768,Crime,Drama,
2769,Comedy,Romance,
2770,Drama,Mystery,
2771,Drama,,
2772,Children's,,
2773,Drama,,
2774,Drama,,
2775,Comedy,Drama,
2776,Drama,Thriller,
2777,Adventure,Sci-Fi,Thriller
2778,Drama,,
2779,Horror,,
2780,Horror,,
2781,Horror,,
2782,Thriller,,
2783,Animation,Musical,
2784,Comedy,Drama,
2785,Documentary,,
2786,Comedy,,
2787,Comedy,Drama,
2788,Drama,,
2789,Comedy,Musical,
2790,Comedy,,
2791,Comedy,,
2792,Drama,,
2793,Comedy,Horror,
2794,Horror,,
2795,Drama,,
2796,Comedy,,
2797,Adventure,Thriller,
2798,Action,Drama,Fantasy
2799,Drama,Mystery,Romance
2800,Comedy,,
2801,Drama,Mystery,Romance
2802,Animation,Children's,
2803,Drama,Musical,
2804,Horror,,
2805,Action,Adventure,Comedy
2806,Action,Adventure,Comedy
2807,Action,Thriller,
2808,Drama,,
2809,Comedy,,
2810,Comedy,Romance,
2811,Drama,Romance,
2812,Children's,Comedy,
2813,Drama,,
2814,Comedy,Romance,
2815,Comedy,,
2816,Drama,War,
2817,Comedy,,
2818,Action,Drama,
2819,Action,Drama,
2820,Drama,Romance,
2821,Adventure,,
2822,Western,,
2823,Comedy,War,
2824,Horror,Mystery,
2825,Adventure,Animation,Children's
2826,Horror,Sci-Fi,
2827,Horror,Sci-Fi,
2828,Horror,Thriller,
2829,Horror,Thriller,
2830,Drama,,
2831,Action,Adventure,
2832,Drama,Romance,
2833,Comedy,,
2834,Drama,,
2835,Documentary,,
2837,Drama,,
2838,Action,Crime,Drama
2839,Comedy,,
2840,Comedy,Drama,
2841,Comedy,,
2842,Action,Adventure,Sci-Fi
2843,Crime,Thriller,
2844,Comedy,,
2845,Drama,Romance,
2846,Drama,Romance,
2847,Western,,
2848,Western,,
2849,Comedy,,
2850,Action,Comedy,
2851,Drama,,
2852,Comedy,Drama,
2853,Drama,Romance,
2854,Drama,,
2855,Drama,,
2856,Documentary,,
2857,Drama,,
2858,Drama,,
2859,Drama,,
2860,Musical,,
2861,Comedy,Romance,
2862,Comedy,,
2863,Comedy,,
2864,Drama,,
2865,Drama,Thriller,
2866,Film-Noir,,
2867,Musical,Romance,War
2868,Drama,Romance,
2869,Drama,Romance,
2870,Action,War,
2871,Mystery,,
2872,Comedy,Musical,
2873,Action,,
2874,Action,,
2875,Action,,
2876,Adventure,Drama,Romance
2877,Action,Western,
2878,Crime,Thriller,
2879,Children's,Comedy,
2881,Drama,,
2882,Action,Crime,Thriller
2885,Drama,,
2886,Drama,,
2887,Comedy,Drama,
2888,Comedy,Romance,
2889,Crime,Drama,
2890,Drama,,
2891,Action,,
2892,Drama,,
2893,Drama,Thriller,
2894,Adventure,Fantasy,Sci-Fi
2895,Drama,Romance,
2896,Adventure,Drama,
2897,Musical,,
2898,Drama,War,
2899,Comedy,,
2900,Horror,Thriller,
2901,Drama,,
2902,Drama,Horror,
2903,Comedy,Drama,
2904,Comedy,Romance,
2905,Drama,,
2907,Documentary,,
2908,Horror,Thriller,
2909,Thriller,,
2910,Documentary,,
2911,Action,Crime,Sci-Fi
2912,Action,Crime,Sci-Fi
2913,Adventure,Animation,Film-Noir
2914,Drama,,
2915,Action,,
2916,Action,,
2917,Action,,
2918,Horror,Thriller,
2919,Action,,
2920,Drama,,
2921,Horror,,
2922,Drama,,
2923,Comedy,,
2924,Romance,,
2925,Comedy,,
2926,Action,Adventure,Animation
2927,Drama,,
2928,Documentary,,
2929,Comedy,Drama,
2930,Comedy,Romance,
2931,Thriller,,
2932,Drama,,
2933,Documentary,,
2934,Thriller,,
2936,Drama,,
2937,Drama,,
2938,Comedy,,
2939,Comedy,Horror,
2940,Comedy,,
2941,Thriller,,
2942,Horror,,
2943,Horror,,
2944,Horror,,
2945,Crime,Drama,
2946,Action,Drama,
2947,Horror,,
2948,Comedy,,
2950,Horror,Sci-Fi,
2951,Western,,
2952,Horror,,
2953,Horror,,
2954,Comedy,,
2955,Action,Drama,
2956,Comedy,Drama,Western
2957,Comedy,,
2958,Sci-Fi,,
2959,Comedy,Sci-Fi,
2960,Animation,Children's,
2961,Comedy,Drama,War
2962,Adventure,,
2963,Comedy,Drama,Western
2964,Drama,,
2965,Comedy,,
2966,Comedy,,
2967,Comedy,,
2968,Comedy,,
2969,Comedy,,
2970,Mystery,Romance,Thriller
2971,Comedy,Drama,
2972,Comedy,Romance,
2973,Drama,,
2974,Comedy,,
2975,Comedy,War,
2976,Drama,,
2977,Drama,,
2978,Comedy,,
2979,Drama,War,
2980,Animation,Children's,
2981,Thriller,,
2982,Thriller,,
2983,Comedy,,
2984,Horror,Sci-Fi,
2986,Comedy,Drama,
2987,Comedy,Musical,
2988,Action,Drama,War
2989,Thriller,,
2990,Thriller,,
2991,Drama,,
2992,War,,
2993,Comedy,Drama,
2994,Drama,,
2995,Drama,,
2996,Adventure,Comedy,Sci-Fi
2997,Drama,,
2998,Comedy,,
2999,Drama,Romance,
3000,Western,,
3001,Thriller,,
3002,Comedy,,
3003,Documentary,,
3004,Drama,,
3005,Drama,,
3007,Horror,Romance,
3008,Action,Thriller,
3009,Comedy,Drama,
3010,Documentary,,
3011,Horror,,
3012,Comedy,,
3013,Comedy,,
3014,Comedy,,
3015,Drama,,
3016,Drama,,
3017,Drama,War,
3018,Drama,,
3019,Drama,Western,
3020,Drama,Romance,
3021,Drama,,
3022,Comedy,,
3023,Comedy,Romance,
3024,Drama,,
3025,Comedy,Romance,
3026,Drama,,
3027,Thriller,,
3028,Thriller,,
3029,Drama,Romance,
3030,Action,Adventure,Comedy
3031,Drama,,
3032,Drama,Romance,
3033,Action,Drama,
3034,Comedy,Drama,Romance
3035,Drama,,
3036,Drama,,
3037,Drama,,
3038,Drama,,
3039,Action,Thriller,
3040,Animation,Children's,Comedy
3041,Drama,,
3042,Drama,,
3043,Drama,Romance,War
3044,Drama,,
3045,Horror,,
3046,Comedy,,
3047,Film-Noir,,
3048,Drama,Romance,Western
3049,Comedy,,
3050,Comedy,Drama,
3051,Drama,,
3052,Drama,,
3053,Drama,,
3054,Drama,,
3055,Comedy,Drama,
3056,Comedy,,
3057,Comedy,,
3058,Comedy,,
3059,Comedy,,
3060,Drama,War,
3061,Drama,,
3062,Documentary,,
3063,Action,War,
3064,Drama,,
3065,Action,Adventure,
3066,Comedy,,
3067,Drama,,
3068,Documentary,Musical,
3069,Drama,War,
3070,Comedy,Romance,
3071,Drama,,
3072,Comedy,,
3073,Drama,Thriller,
3074,Drama,,
3075,Mystery,,
3076,Drama,,
3077,Crime,Drama,Mystery
3078,Drama,,
3079,Action,Adventure,Fantasy
3080,Drama,War,
3081,Drama,Romance,
3082,Comedy,Drama,Sci-Fi
3083,Children's,Comedy,
3084,Drama,,
3085,Animation,Children's,Musical
3086,Drama,,
3087,Drama,,
3088,Comedy,Drama,
3089,Drama,,
3090,Drama,,
3091,Action,Drama,
3092,Adventure,,
3093,Drama,,
3094,Adventure,Drama,
3095,Drama,,
3097,Drama,,
3098,Adventure,,
3099,Drama,,
3100,Comedy,Drama,
3101,Adventure,Comedy,Sci-Fi
3102,Drama,Mystery,Thriller
3103,Comedy,,
3104,Drama,,
3105,Drama,,
3106,Comedy,Drama,
3107,Drama,,
3108,Documentary,,
3109,Drama,,
3110,Action,Comedy,Crime
3111,Drama,,
3112,Drama,,
3113,Drama,,
3114,Documentary,,
3115,Comedy,,
3116,Adventure,Sci-Fi,
3118,Drama,,
3120,Drama,,
3122,Drama,War,
3123,Action,,
3124,Drama,,
3125,Comedy,Musical,Romance
3126,Comedy,Drama,
3127,Drama,,
3128,Drama,,
3129,Thriller,,
3130,Thriller,,
3131,Horror,,
3132,Romance,,
3133,Adventure,,
3134,Action,Comedy,
3135,Drama,,
3136,Comedy,,
3137,Drama,,
3138,Drama,,
3139,Animation,Children's,
3140,Drama,,
3141,Drama,,
3142,Horror,,
3143,Drama,,
3144,Drama,,
3145,Thriller,,
3146,Drama,,
3147,Drama,,
3148,Drama,,
3149,Drama,,
3150,Drama,,
3151,Comedy,Romance,
3154,Comedy,,
3155,Crime,Drama,
3156,Thriller,,
3158,Comedy,,
3159,Comedy,,
3161,Comedy,,
3162,Western,,
3163,Documentary,,
3164,Thriller,,
3165,Comedy,,
3166,Comedy,,
3167,Comedy,,
3168,Comedy,,
3169,Comedy,,
3170,Comedy,Romance,
3171,Drama,,
3172,Drama,,
3173,Comedy,Crime,
3174,Comedy,,
3175,Thriller,,
3176,Drama,,
3177,Drama,Mystery,
3178,Drama,,
3179,Comedy,,
3180,Comedy,,
3181,Comedy,Drama,
3182,Action,Thriller,
3183,Action,Drama,Romance
3184,Comedy,,
3185,Drama,Romance,
3186,Drama,,
3187,Comedy,Drama,Romance
3188,Drama,Mystery,
3189,Comedy,,
3190,Comedy,Horror,
3191,Action,Crime,
3192,Action,Comedy,Crime
3193,Action,Thriller,
3194,Action,Comedy,
3195,Adventure,Romance,Sci-Fi
3196,Drama,,
3197,Drama,,
3198,Crime,Drama,
3199,Horror,Mystery,Thriller
3200,Action,,
3201,Action,Comedy,
3202,Comedy,,
3203,Drama,,
3206,Horror,,
3207,Documentary,,
3208,Comedy,,
3209,Action,,
3210,Comedy,Romance,
3211,Adventure,Drama,
3212,Comedy,,
3213,Animation,Children's,
3214,Drama,,
3215,Drama,,
3216,Comedy,,
3217,Thriller,,
3218,Film-Noir,,
3219,Drama,Sci-Fi,
3220,Horror,,
3221,Drama,,
3222,Drama,,
3223,Documentary,,
3224,Drama,,
3225,Comedy,Drama,
3226,Action,Sci-Fi,
3227,Comedy,Crime,
3228,Comedy,,
3229,Documentary,,
3230,Crime,Drama,
3231,Film-Noir,Horror,
3232,Comedy,,
3233,Comedy,Drama,Romance
3234,Comedy,Drama,
3235,Comedy,,
3236,Action,,
3237,Western,,
3238,Drama,,
3239,Comedy,,
3240,Action,Drama,
3241,Musical,,
3242,Action,Thriller,
3243,Comedy,Drama,
3244,Thriller,,
3245,Drama,,
3246,Comedy,Romance,
3247,Comedy,,
3248,Comedy,,
3249,Comedy,Crime,
3250,Comedy,,
3251,Comedy,Drama,
3252,Comedy,Sci-Fi,
3253,Documentary,,
3254,Crime,Drama,
3255,Drama,,
3256,Drama,,
3257,Drama,,
3259,Drama,,
3260,Crime,Drama,Film-Noir
3261,Crime,Drama,
3262,Drama,,
3263,Comedy,Drama,
3264,Documentary,,
3265,War,,
3266,Horror,Sci-Fi,
3267,Comedy,,
3268,Drama,War,
3269,Comedy,Drama,Romance
3270,Horror,,
3271,Adventure,Children's,
3272,Horror,,
3273,Drama,,
3275,Comedy,,
3276,Drama,,
3277,Horror,,
3278,Drama,,
3279,Comedy,Romance,
3280,Sci-Fi,,
3281,Thriller,,
3283,Drama,Romance,
3284,Comedy,Romance,
3285,Drama,,
3286,Drama,,
3287,Comedy,,
3288,Comedy,Crime,Drama
3289,Comedy,Drama,
3290,Crime,Film-Noir,
3291,Western,,
3292,Action,Adventure,War
3293,War,,
3294,Romance,Western,
3296,Drama,Thriller,
3297,Drama,,
3298,Action,War,
3299,Western,,
3300,Drama,,
3301,Sci-Fi,,
3302,Romance,,
3303,Drama,War,
3304,Drama,,
3305,Drama,,
3306,Film-Noir,,
3307,Comedy,Drama,
3308,Drama,,
3310,Action,,
3311,Comedy,,
3312,Drama,Mystery,
3313,Comedy,,
3314,Comedy,,
3315,Action,Adventure,
3316,Adventure,,
3317,Comedy,,
3318,Comedy,,
3319,Comedy,Fantasy,
3320,Comedy,Romance,
3321,Comedy,,
3322,Children's,Comedy,
3323,Children's,Comedy,
3324,Children's,Comedy,
3325,Children's,Comedy,
3326,Animation,Children's,
3327,Adventure,Sci-Fi,
3328,Drama,,
3329,Drama,Thriller,
3330,Action,Drama,
3331,Action,Drama,
3332,Action,Adventure,War
3333,Comedy,Drama,
3334,Drama,,
3335,Drama,Thriller,
3336,Comedy,Drama,
3338,Adventure,,
3339,Crime,Drama,
3340,Romance,,
3341,Drama,,
3342,Drama,,
3343,Adventure,Comedy,Sci-Fi
3344,Action,Drama,
3345,Comedy,Crime,
3346,Drama,Thriller,
3347,Comedy,,
3348,Comedy,Romance,
3349,Drama,,
3350,Comedy,Drama,
3351,Drama,,
3352,Drama,Romance,
3353,Crime,,
3354,Drama,,
3355,Animation,Comedy,
3356,Action,Drama,
3357,Action,Drama,
3358,Action,Drama,
3359,Action,Drama,
3360,Action,Drama,
3361,Crime,Film-Noir,
3362,Drama,Romance,
3363,Drama,,
3364,Action,Children's,Fantasy
3365,Action,Children's,Fantasy
3366,Action,Children's,Fantasy
3367,Action,War,
3368,Action,,
3369,Action,Drama,Thriller
3370,Action,,
3371,Mystery,Thriller,
3372,Comedy,,
3373,Drama,,
3374,Comedy,Drama,War
3375,Drama,,
3376,Comedy,,
3377,Comedy,Drama,
3378,Action,Romance,
3379,Drama,Romance,
3380,Comedy,Romance,
3382,Drama,,
3383,Drama,,
3384,Drama,Romance,
3385,Drama,Horror,
3386,Comedy,,
3387,Adventure,Drama,Thriller
3388,Comedy,,
3389,Comedy,,
3390,Sci-Fi,Thriller,
3391,Drama,,
3392,Comedy,Fantasy,
3393,Drama,Western,
3394,Drama,,
3395,Drama,,
3396,Adventure,Drama,
3397,Drama,Sci-Fi,
3398,Horror,,
3399,Comedy,,
3400,Sci-Fi,Thriller,
3401,Drama,Romance,
3402,Horror,Mystery,Thriller
3403,Comedy,Drama,
3404,Drama,,
3405,Adventure,Fantasy,Romance
3406,Drama,,
3407,Comedy,,
3408,Drama,,
3409,Animation,Children's,
3410,Thriller,,
3411,Horror,,
3412,Sci-Fi,,
3413,Western,,
3414,Horror,Sci-Fi,
3415,Adventure,Fantasy,
3416,Horror,,
3417,Comedy,,
3418,Adventure,,
3419,Horror,,
3420,Adventure,Western,
3421,Comedy,Drama,
3422,Drama,,
3423,Comedy,,
3424,Drama,,
3425,Horror,,
3426,Comedy,Drama,
3427,Comedy,Romance,
3428,Drama,,
3429,Drama,Sci-Fi,
3430,Comedy,Drama,
3431,Thriller,,
3432,Comedy,Drama,
3433,Comedy,,
3434,Western,,
3435,Drama,,
3436,Drama,Thriller,
3437,Comedy,,
3438,Drama,Romance,
3439,Drama,Thriller,
3440,Drama,,
3441,Comedy,,
3442,Comedy,Romance,
3443,Crime,Drama,
3444,Drama,Thriller,
3445,Action,War,
3446,Comedy,,
3447,Comedy,Crime,Drama
3448,Drama,,
3449,Action,Thriller,
3450,Comedy,Romance,
3451,Comedy,,
3452,Comedy,Drama,
3453,Action,Sci-Fi,Thriller
3454,Drama,Romance,
3455,Crime,Thriller,
3456,Comedy,,
3457,Comedy,Drama,Romance
3458,Comedy,,
3459,Drama,,
3460,Comedy,,
3461,Comedy,Horror,Thriller
3462,Comedy,Romance,
3463,Comedy,Drama,
3464,Comedy,,
3465,Documentary,,
3466,Romance,Thriller,
3468,Drama,,
3469,Comedy,Drama,
3470,Comedy,,
3471,Musical,War,
3472,Drama,Thriller,
3473,Drama,,
3474,Comedy,Drama,
3475,Musical,,
3476,Horror,,
3477,Thriller,,
3478,Comedy,,
3479,Drama,Thriller,
3480,Drama,Romance,
3481,Action,Thriller,
3482,Comedy,Drama,
3483,Thriller,,
3485,Drama,,
3488,Comedy,Drama,
3489,Action,Horror,
3490,Children's,Comedy,
3491,Comedy,Drama,
3492,Comedy,Drama,
3493,Comedy,,
3494,Drama,,
3495,Comedy,Drama,
3496,Drama,,
3497,Drama,,
3498,Horror,Sci-Fi,
3499,Horror,Sci-Fi,
3500,Horror,Sci-Fi,
3501,Drama,,
3502,Action,Horror,Sci-Fi
3503,Drama,,
3504,Action,Drama,
3505,Drama,,
3506,Drama,,
3507,Drama,,
3510,Action,Drama,Romance
3511,Adventure,War,
3512,Drama,,
3513,Horror,,
3514,Crime,Drama,
3516,Comedy,,
3517,Comedy,Drama,
3518,Animation,Sci-Fi,
3519,Action,Sci-Fi,
3520,Drama,,
3521,Comedy,,
3522,Comedy,,
3523,Comedy,,
3524,Drama,,
3525,Comedy,Musical,
3526,Comedy,Musical,
3527,Comedy,Western,
3528,Musical,,
3529,Comedy,,
3530,Musical,,
3531,Drama,Musical,
3532,Musical,,
3533,Comedy,Drama,Western
3534,Comedy,,
3535,Documentary,,
3536,Musical,,
3537,Animation,Children's,Comedy
3538,Adventure,Musical,Romance
3539,Comedy,,
3540,Comedy,Romance,
3541,Animation,Children's,
3542,Comedy,Romance,
3543,Comedy,,
3544,Comedy,,
3545,Comedy,,
3546,Comedy,Drama,
3547,Drama,Horror,
3548,Comedy,,
3549,Action,Thriller,
3550,Action,,
3551,Documentary,,
3552,Comedy,,
3553,Horror,Thriller,
3554,Action,Drama,War
3555,Comedy,,
3557,Comedy,,
3558,Comedy,,
3559,Action,,
3560,Thriller,,
3561,Action,,
3562,Drama,,
3563,Drama,,
3564,Action,Romance,Sci-Fi
3565,Action,,
3566,Comedy,Drama,
3567,Drama,,
3568,Western,,
3569,Action,Drama,War
3570,Western,,
3571,Drama,,
3572,Comedy,,
3573,Drama,,
3574,Horror,Sci-Fi,
3575,Drama,,
3577,Horror,,
3578,Horror,,
3579,Documentary,,
3580,Action,Drama,War
3581,Drama,,
3582,Crime,,
3583,Drama,,
3584,Sci-Fi,,
3585,Sci-Fi,Thriller,
3586,Horror,Sci-Fi,Thriller
3587,Horror,Sci-Fi,Thriller
3588,Horror,Sci-Fi,Thriller
3589,Horror,Sci-Fi,Thriller
3590,Horror,Sci-Fi,Thriller
3591,Horror,Sci-Fi,Thriller
3592,Horror,Sci-Fi,Thriller
3593,Action,Comedy,
3594,Drama,Romance,
3595,Comedy,,
3596,War,,
3597,Comedy,Western,
3598,Adventure,Children's,
3599,Adventure,Children's,
3600,Adventure,Children's,
3601,Musical,,
3602,Drama,Horror,
3603,Documentary,,
3604,Drama,,
3605,Documentary,,
3606,Documentary,,
3607,Western,,
3608,Western,,
3609,Drama,Film-Noir,
3610,Drama,Romance,
3611,Comedy,Drama,Romance
3612,Thriller,,
3613,Sci-Fi,,
3614,Comedy,,
3615,Comedy,,
3616,Comedy,,
3617,Comedy,,
3618,Comedy,Horror,
3619,Comedy,Horror,
3620,Comedy,Horror,
3621,Comedy,Horror,
3622,Comedy,Horror,Sci-Fi
3623,Action,Sci-Fi,Thriller
3624,Action,Adventure,Sci-Fi
3625,Adventure,Drama,Romance
3626,Drama,Sci-Fi,
3627,Crime,Drama,Sci-Fi
3628,Action,Sci-Fi,
3629,Action,Sci-Fi,
3630,Action,Sci-Fi,
3631,Action,Adventure,Romance
3632,Film-Noir,Mystery,Thriller
3633,Drama,,
3634,Horror,Thriller,
3635,Horror,,
3636,Action,Comedy,
3637,Drama,,
3638,Comedy,,
3639,Drama,,
3640,Drama,,
3641,Comedy,,
3642,Action,Crime,
3643,Action,Crime,
3644,Documentary,,
3645,Comedy,Romance,
3646,Drama,,
3647,Comedy,,
3648,Comedy,,
3649,Drama,,
3650,Drama,War,
3651,Animation,Musical,
3652,Action,Thriller,
3653,Comedy,Horror,
3654,Thriller,,
3655,Action,Crime,
3656,Drama,Mystery,
3657,Drama,Thriller,
3658,Horror,,
3659,Drama,,
3660,Drama,,
3661,Crime,Drama,
3662,Drama,,
3663,Drama,Western,
3664,Drama,,
3665,Comedy,Romance,
3666,Action,Comedy,
3667,Crime,Drama,
3668,Drama,War,
3669,Comedy,Romance,
3670,Action,Crime,
3671,Adventure,Animation,Sci-Fi
3672,Drama,War,
3673,Drama,,
3674,Comedy,Romance,
3675,Drama,,
3677,Animation,Children's,Comedy
3678,Comedy,,
3679,Action,Drama,War
3680,Animation,Children's,Comedy
3681,Action,Adventure,Thriller
3682,Drama,,
3683,Horror,,
3684,Drama,Sci-Fi,Thriller
3685,Animation,Children's,Musical
3686,Comedy,,
3687,Crime,Drama,
3688,Horror,,
3689,Action,Crime,Thriller
3690,Action,Crime,Thriller
3691,Drama,Romance,
3692,Action,War,
3693,Action,War,
3694,Action,War,
3695,Action,,
3696,Adventure,Crime,Sci-Fi
3697,Action,Adventure,
3698,Horror,,
3699,Comedy,,
3700,Comedy,,
3701,Animation,Children's,Musical
3702,Animation,Children's,Musical
3703,Comedy,Horror,
3704,Comedy,Drama,
3705,Sci-Fi,,
3706,Sci-Fi,,
3707,Action,Crime,
3708,Action,Crime,
3709,Crime,Drama,
3710,Comedy,,
3711,Comedy,Horror,
3712,Comedy,,
3713,Comedy,,
3714,Drama,Mystery,
3715,Drama,,
3716,Drama,,
3717,Drama,,
3718,Western,,
3719,Action,Sci-Fi,
3720,Comedy,Drama,
3721,Drama,,
3722,Romance,Thriller,
3723,Thriller,,
3724,Thriller,,
3725,Animation,Children's,
3726,Drama,Romance,
3727,Drama,Mystery,
3728,Action,Sci-Fi,
3729,Drama,,
3730,Comedy,,
3731,Action,Adventure,Drama
3732,Western,,
3733,Action,Adventure,
3734,Drama,War,
3735,Comedy,,
3736,Drama,Thriller,
3737,Drama,War,
3738,Comedy,,
3739,Drama,,
3740,Comedy,,
3741,Drama,,
3742,Comedy,Drama,
3743,Comedy,Musical,
3744,Comedy,,
3745,Children's,,
3746,Comedy,,
3747,Drama,Romance,
3748,Drama,,
3749,Drama,Romance,
3750,Drama,,
3751,Horror,Sci-Fi,Thriller
3752,Action,Sci-Fi,
3753,Comedy,,
3755,Comedy,Horror,Thriller
3756,Comedy,,
3757,Horror,,
3758,Horror,Sci-Fi,
3759,Adventure,Drama,Romance
3760,Thriller,,
3761,Action,Comedy,War
3762,Horror,,
3763,Horror,,
3764,Horror,,
3765,Horror,,
3766,Action,Comedy,
3767,Horror,,
3768,Horror,,
3769,Drama,,
3770,Drama,,
3771,Comedy,,
3772,Horror,,
3773,Drama,Thriller,
3774,Thriller,,
3775,Crime,Thriller,
3776,Comedy,,
3777,Comedy,,
3778,Drama,,
3779,Drama,Romance,
3780,Drama,Romance,
3782,Thriller,,
3783,Comedy,,
3784,Documentary,,
3785,Crime,,
3786,Comedy,,
3787,Comedy,,
3788,Sci-Fi,Thriller,
3789,Action,Adventure,Sci-Fi
3790,Comedy,Documentary,
3791,Comedy,,
3792,Drama,,
3793,Comedy,,
3794,Comedy,,
3795,Drama,,
3796,Drama,Western,
3797,Drama,,
3798,Comedy,Western,
3799,Comedy,Romance,
3800,Horror,,
3801,Drama,,
3802,Action,Adventure,Fantasy
3803,Sci-Fi,,
3804,Action,,
3805,Documentary,,
3806,Documentary,,
3807,Comedy,,
3808,Comedy,Drama,
3809,Comedy,,
3810,Comedy,Romance,
3811,Drama,,
3812,Drama,,
3813,Drama,Romance,
3814,Action,Adventure,Fantasy
3815,Documentary,,
3816,Crime,Drama,
3817,Horror,,
3818,Comedy,Thriller,
3819,Drama,,
3820,Crime,Thriller,
3821,Crime,Thriller,
3822,Comedy,Drama,
3823,Action,Comedy,
3824,Comedy,,
3825,Comedy,Drama,
3826,Comedy,Drama,
3827,Drama,,
3828,Drama,,
3829,Drama,,
3830,Comedy,,
3831,Crime,,
3833,Horror,,
3834,Comedy,Romance,
3835,Drama,Musical,
3836,Comedy,,
3837,Comedy,Drama,
3838,Documentary,,
3839,Drama,,
3840,Drama,,
3841,Drama,,
3842,Horror,,
3843,Horror,,
3844,Horror,,
3845,Drama,Fantasy,
3846,Comedy,,
3847,Comedy,,
3848,Horror,Sci-Fi,
3849,Comedy,,
3850,Comedy,,
3851,Adventure,Sci-Fi,
3852,Adventure,Sci-Fi,
3853,Comedy,Horror,
3854,Comedy,,
3855,Horror,,
3856,Horror,Sci-Fi,
3857,Horror,Sci-Fi,
3858,Horror,Sci-Fi,
3859,Sci-Fi,,
3860,Horror,,
3861,Drama,Thriller,
3862,Sci-Fi,Thriller,
3863,Horror,,
3864,Horror,,
3865,Horror,,
3866,Horror,,
3867,Horror,,
3868,Comedy,,
3869,Comedy,Drama,
3870,Adventure,Animation,Children's
3871,Action,Drama,Thriller
3872,Thriller,,
3873,Comedy,,
3874,Drama,,
3875,Drama,,
3876,Drama,,
3877,Drama,Thriller,
